<?xml version="1.0" encoding="utf-8"?>
<!-- Generator: Adobe Illustrator 23.0.3, SVG Export Plug-In . SVG Version: 6.00 Build 0)  -->
<svg version="1.1" xmlns="http://www.w3.org/2000/svg" xmlns:xlink="http://www.w3.org/1999/xlink" x="0px" y="0px"
	 viewBox="0 0 21 21" style="enable-background:new 0 0 21 21;" xml:space="preserve">
<g id="Layer_1">
</g>
<g id="Layer_2">
	<g>
		<path d="M5,14.7c-0.1,0-0.1,0-0.2,0c-0.6,0-1.1,0.5-1.1,1.1c0,0.6,0.5,1.1,1.1,1.1S6,16.3,6,15.8c0-0.3-0.1-0.5-0.3-0.7L7.9,11
			C7.9,11,8,11,8,11c0.2,0,0.3,0,0.5-0.1l3.3,3.2l4.1-7.3c0.1,0,0.1,0,0.2,0c0.6,0,1.1-0.5,1.1-1.1s-0.5-1.1-1.1-1.1
			c-0.6,0-1.1,0.5-1.1,1.1c0,0.3,0.1,0.5,0.3,0.7L11.6,13L9,10.4c0.1-0.1,0.1-0.3,0.1-0.5c0-0.6-0.5-1.1-1.1-1.1S7,9.3,7,9.9
			c0,0.3,0.1,0.5,0.3,0.7L5,14.7z"/>
		<path d="M5,0H0v4.8V21h21V0H5z M20.3,20.3H0.7V4.8V0.7H5h15.3V20.3z"/>
	</g>
</g>
</svg>
