<?xml version="1.0" encoding="utf-8"?>
<!-- Generator: Adobe Illustrator 23.0.2, SVG Export Plug-In . SVG Version: 6.00 Build 0)  -->
<svg version="1.1" id="Layer_1" xmlns="http://www.w3.org/2000/svg" xmlns:xlink="http://www.w3.org/1999/xlink" x="0px" y="0px"
	 viewBox="0 0 6.9 11" style="enable-background:new 0 0 6.9 11;" xml:space="preserve">
<style type="text/css">
	.st0{fill:#FFFFFF;}
</style>
<path class="st0" d="M4.8,11l-0.3-0.4c0.9-0.9,0.6-2.3-1.1-4.4C3.3,6.9,2.9,7.5,2.5,8c-0.6,0.9-1,1.5-0.1,2.6L2,11
	c-3.2-2.7-2-4.6-0.7-6.4c0.8-1.1,1.5-2.3,1.4-3.7L2.6,0l0.6,0.8c1.9,2.3,3.9,4.8,3.6,7.1C6.7,9,6.1,10.1,4.8,11z M3,4.9l0.4,0.5
	c1.2,1.4,2.2,3,2,4.3C6,9.1,6.3,8.5,6.4,7.8c0.2-2-1.4-4.2-3.2-6.3C3.1,2.8,2.4,3.9,1.7,4.8c-1.1,1.6-2,2.9-0.3,4.8
	C1.3,8.9,1.7,8.4,2.1,7.8C2.5,7.1,3,6.5,3,5.6L3,4.9z"/>
</svg>
