<?xml version="1.0" encoding="utf-8"?>
<!-- Generator: Adobe Illustrator 23.0.2, SVG Export Plug-In . SVG Version: 6.00 Build 0)  -->
<svg version="1.1" xmlns="http://www.w3.org/2000/svg" xmlns:xlink="http://www.w3.org/1999/xlink" x="0px" y="0px"
	 viewBox="0 0 7.3 10.5" style="enable-background:new 0 0 7.3 10.5;" xml:space="preserve">
<style type="text/css">
	.st0{fill:#FFFFFF;}
</style>
<g id="Layer_1">
</g>
<g id="Add_Analysis_window">
	<g>
		<path class="st0" d="M6.3,3.2V2.7c0-0.7-0.3-1.4-0.8-1.9C5.1,0.3,4.4,0,3.7,0C2.2,0,1,1.2,1,2.7v0.5H0v3.7c0,2,1.6,3.7,3.7,3.7
			s3.7-1.6,3.7-3.7V3.2H6.3z M1.5,2.7c0-1.2,1-2.2,2.2-2.2c0.6,0,1.1,0.2,1.5,0.6c0.4,0.4,0.6,1,0.6,1.5v0.5H1.5V2.7z M6.8,6.8
			c0,1.7-1.4,3.2-3.2,3.2c-1.7,0-3.2-1.4-3.2-3.2V3.7h6.3V6.8z"/>
		<path class="st0" d="M3.7,7.7c0.5,0,0.9-0.4,0.9-0.9S4.2,5.9,3.7,5.9c-0.5,0-0.9,0.4-0.9,0.9S3.2,7.7,3.7,7.7z"/>
	</g>
</g>
</svg>
