<?xml version="1.0" encoding="utf-8"?>
<!-- Generator: Adobe Illustrator 23.0.1, SVG Export Plug-In . SVG Version: 6.00 Build 0)  -->
<svg version="1.1" id="Layer_2" xmlns="http://www.w3.org/2000/svg" xmlns:xlink="http://www.w3.org/1999/xlink" x="0px" y="0px"
	 viewBox="0 0 21 21" style="enable-background:new 0 0 21 21;" xml:space="preserve">
<style type="text/css">
	.st0{fill:#FFFFFF;}
</style>
<path class="st0" d="M18.5,0H1.4C0.6,0,0,0.8,0,1.8v12.4c0,1,0.6,1.7,1.4,1.8h12.1L19,21l-0.5-5.1c0.8,0,1.4-0.8,1.4-1.8V1.8
	C19.9,0.8,19.3,0,18.5,0z M8.1,9.1H5.7V6.7h2.4V9.1z M13.9,9.1h-2.4V6.7h2.4V9.1z"/>
</svg>
