<?xml version="1.0" encoding="utf-8"?>
<!-- Generator: Adobe Illustrator 24.0.1, SVG Export Plug-In . SVG Version: 6.00 Build 0)  -->
<svg version="1.1" id="Layer_1" xmlns="http://www.w3.org/2000/svg" xmlns:xlink="http://www.w3.org/1999/xlink" x="0px" y="0px"
	 viewBox="0 0 21 21" style="enable-background:new 0 0 21 21;" xml:space="preserve">
<style type="text/css">
	.st0{fill:#FFFFFF;}
</style>
<g>
	<path class="st0" d="M19.5,10.6c-0.8,2.1-2.8,3.7-5.2,3.7c-3.1,0-5.6-2.5-5.6-5.6c0-0.7,0.2-1.5,0.6-2.4C6.2,6.8,3.1,8.7,0,12.2
		c7,7.7,14,7.7,21,0C20.5,11.6,20,11.1,19.5,10.6z"/>
	<path class="st0" d="M11.3,8.7c0-1.6,3-5.7,3-5.7s3,4.1,3,5.7s-1.3,3-3,3S11.3,10.4,11.3,8.7z"/>
</g>
</svg>
