<?xml version="1.0" encoding="utf-8"?>
<!-- Generator: Adobe Illustrator 23.0.3, SVG Export Plug-In . SVG Version: 6.00 Build 0)  -->
<svg version="1.1" xmlns="http://www.w3.org/2000/svg" xmlns:xlink="http://www.w3.org/1999/xlink" x="0px" y="0px"
	 viewBox="0 0 21 21" style="enable-background:new 0 0 21 21;" xml:space="preserve">
<style type="text/css">
	.st0{fill:#FFFFFF;}
</style>
<g id="Layer_1">
</g>
<g id="Add_Analysis_window">
	<g>
		<path class="st0" d="M5.1,8.9c0,0.7,0.2,1.4,0.5,2l1.6-0.2c0.2,0.3,0.4,0.6,0.6,0.8l-0.5,1.5c0.5,0.4,1.2,0.7,1.8,0.9l0.9-1.3
			c0.2,0,0.3,0,0.5,0s0.3,0,0.5,0l0.9,1.3c0.7-0.2,1.3-0.5,1.8-0.9l-0.5-1.5c0.3-0.2,0.5-0.5,0.6-0.8l1.6,0.2c0.3-0.6,0.4-1.3,0.5-2
			l-1.5-0.5c0-0.4-0.1-0.7-0.2-1.1l1.1-1.2C15,5.5,14.5,5,14,4.6l-1.3,0.8c-0.3-0.2-0.6-0.4-1-0.5l-0.2-1.6c-0.3-0.1-0.7-0.1-1-0.1
			c-0.3,0-0.7,0-1,0.1L9.3,4.9C8.9,5,8.6,5.2,8.3,5.4L7,4.6C6.5,5,6,5.5,5.7,6.2l1.1,1.2C6.7,7.6,6.6,8,6.6,8.4L5.1,8.9z M7.3,6.8
			L6.6,6.1c0.1-0.2,0.3-0.4,0.5-0.6L7.9,6l0.4,0.2L8.7,6c0.2-0.2,0.5-0.3,0.8-0.4l0.4-0.1L10,5l0.1-1c0.1,0,0.2,0,0.4,0s0.2,0,0.4,0
			L11,5l0.1,0.4l0.4,0.1c0.3,0.1,0.6,0.2,0.8,0.4l0.4,0.3L13.1,6l0.9-0.5c0.2,0.2,0.3,0.4,0.5,0.6l-0.7,0.8l-0.3,0.3l0.1,0.4
			c0.1,0.3,0.2,0.6,0.2,0.9l0,0.4L14.2,9l1,0.4c0,0.3-0.1,0.5-0.2,0.8l-1-0.1l-0.4,0l-0.2,0.4c-0.1,0.3-0.3,0.5-0.5,0.7l-0.3,0.3
			l0.1,0.4l0.3,1c-0.2,0.1-0.5,0.2-0.7,0.3l-0.6-0.9l-0.2-0.4l-0.4,0.1c-0.1,0-0.3,0-0.4,0s-0.3,0-0.4,0l-0.4-0.1l-0.2,0.4l-0.6,0.9
			c-0.2-0.1-0.5-0.2-0.7-0.3l0.3-1l0.1-0.4l-0.3-0.3c-0.2-0.2-0.4-0.4-0.5-0.7L7.5,10l-0.4,0l-1,0.1C6,9.9,5.9,9.7,5.9,9.4l1-0.4
			l0.4-0.2l0-0.4c0-0.3,0.1-0.6,0.2-0.9l0.1-0.4L7.3,6.8z"/>
		<circle class="st0" cx="10.5" cy="8.6" r="0.9"/>
		<path class="st0" d="M17.3,10.8c-0.1,0.2-0.2,0.4-0.2,0.7l2.3,1L10.5,17l-8.9-4.5l2.3-1c-0.1-0.2-0.2-0.4-0.2-0.7L0,12.4l10.5,5.4
			L21,12.4L17.3,10.8z"/>
	</g>
</g>
</svg>
