<?xml version="1.0" encoding="utf-8"?>
<!-- Generator: Adobe Illustrator 24.0.1, SVG Export Plug-In . SVG Version: 6.00 Build 0)  -->
<svg version="1.1" id="Layer_1" xmlns="http://www.w3.org/2000/svg" xmlns:xlink="http://www.w3.org/1999/xlink" x="0px" y="0px"
	 viewBox="0 0 21 21" style="enable-background:new 0 0 21 21;" xml:space="preserve">
<g>
	<path d="M17.1,14.3c-1.5,0-2.8-0.5-3.9-1.3v1.3h-2.4v2.4h-2v-2.4H6.4v-2h2.4V10h2v2.4h1.7c-1.3-1.2-2.1-3-2.1-4.9V5.9H7.4V3.7H4.2
		v2.2H3c-1.7,0-3,1.4-3,3v8.9c0,1.7,1.4,3,3,3h13.5c1.7,0,3-1.4,3-3v-4C18.8,14.2,18,14.3,17.1,14.3z"/>
	<path d="M20,3.7V3c0-0.8-0.3-1.5-0.8-2c-0.5-0.5-1.3-0.8-2-0.8c-1.6,0-2.9,1.3-2.9,2.9v0.7h-1v3.9c0,2.1,1.7,3.9,3.9,3.9
		c2.1,0,3.9-1.7,3.9-3.9V3.7H20z M19,3.7h-3.8V3c0-1,0.9-1.9,1.9-1.9c0.5,0,1,0.2,1.3,0.6C18.8,2,19,2.5,19,3V3.7z"/>
</g>
</svg>
