<?xml version="1.0" encoding="utf-8"?>
<!-- Generator: Adobe Illustrator 23.0.1, SVG Export Plug-In . SVG Version: 6.00 Build 0)  -->
<svg version="1.1" xmlns="http://www.w3.org/2000/svg" xmlns:xlink="http://www.w3.org/1999/xlink" x="0px" y="0px"
	 viewBox="0 0 21 21" style="enable-background:new 0 0 21 21;" xml:space="preserve">
<style type="text/css">
	.st0{fill:#FFFFFF;}
</style>
<g id="Layer_1">
</g>
<g id="Isolation_Mode">
	<path class="st0" d="M6.8,2.8C6.9,2.8,7,2.9,7,3v2.8v0.7l0.7,0l11.5-0.1c0.5,0,1,0.4,1.1,1v9.8c0,0.5-0.4,1-1,1H1.7
		c-0.5,0-1-0.4-1-1V4.6V3c0-0.1,0.1-0.2,0.2-0.2H6.8 M6.8,2.1H0.9C0.4,2.1,0,2.5,0,3v1.6v12.6c0,0.9,0.8,1.7,1.7,1.7h17.6
		c0.9,0,1.7-0.8,1.7-1.7V7.4c-0.1-0.9-0.8-1.7-1.8-1.7L7.7,5.8V3C7.7,2.5,7.3,2.1,6.8,2.1L6.8,2.1z"/>
</g>
</svg>
