  {
    "timeZone": [
      "Africa/Abidjan (GMT+00:00)",
      "Africa/Accra (GMT+00:00)",
      "Africa/Addis_Ababa (GMT+03:00)",
      "Africa/Algiers (GMT+01:00)",
      "Africa/Asmara (GMT+03:00)",
      "Africa/Bamako (GMT+00:00)",
      "Africa/Bangui (GMT+01:00)",
      "Africa/Banjul (GMT+00:00)",
      "Africa/Bissau (GMT+00:00)",
      "Africa/Blantyre (GMT+02:00)",
      "Africa/Brazzaville (GMT+01:00)",
      "Africa/Bujumbura (GMT+02:00)",
      "Africa/Cairo (GMT+02:00)",
      "Africa/Casablanca (GMT+01:00)",
      "Africa/Ceuta (GMT+02:00)",
      "Africa/Conakry (GMT+00:00)",
      "Africa/Dakar (GMT+00:00)",
      "Africa/Dar_es_Salaam (GMT+03:00)",
      "Africa/Djibouti (GMT+03:00)",
      "Africa/Douala (GMT+01:00)",
      "Africa/El_Aaiun (GMT+01:00)",
      "Africa/Freetown (GMT+00:00)",
      "Africa/Gaborone (GMT+02:00)",
      "Africa/Harare (GMT+02:00)",
      "Africa/Johannesburg (GMT+02:00)",
      "Africa/Juba (GMT+03:00)",
      "Africa/Kampala (GMT+03:00)",
      "Africa/Khartoum (GMT+02:00)",
      "Africa/Kigali (GMT+02:00)",
      "Africa/Kinshasa (GMT+01:00)",
      "Africa/Lagos (GMT+01:00)",
      "Africa/Libreville (GMT+01:00)",
      "Africa/Lome (GMT+00:00)",
      "Africa/Luanda (GMT+01:00)",
      "Africa/Lubumbashi (GMT+02:00)",
      "Africa/Lusaka (GMT+02:00)",
      "Africa/Malabo (GMT+01:00)",
      "Africa/Maputo (GMT+02:00)",
      "Africa/Maseru (GMT+02:00)",
      "Africa/Mbabane (GMT+02:00)",
      "Africa/Mogadishu (GMT+03:00)",
      "Africa/Monrovia (GMT+00:00)",
      "Africa/Nairobi (GMT+03:00)",
      "Africa/Ndjamena (GMT+01:00)",
      "Africa/Niamey (GMT+01:00)",
      "Africa/Nouakchott (GMT+00:00)",
      "Africa/Ouagadougou (GMT+00:00)",
      "Africa/Porto-Novo (GMT+01:00)",
      "Africa/Sao_Tome (GMT+01:00)",
      "Africa/Tripoli (GMT+02:00)",
      "Africa/Tunis (GMT+01:00)",
      "Africa/Windhoek (GMT+02:00)",
      "America/Adak (GMT-09:00)",
      "America/Anchorage (GMT-08:00)",
      "America/Anguilla (GMT-04:00)",
      "America/Antigua (GMT-04:00)",
      "America/Araguaina (GMT-03:00)",
      "America/Argentina/Buenos_Aires (GMT-03:00)",
      "America/Argentina/Catamarca (GMT-03:00)",
      "America/Argentina/Cordoba (GMT-03:00)",
      "America/Argentina/Jujuy (GMT-03:00)",
      "America/Argentina/La_Rioja (GMT-03:00)",
      "America/Argentina/Mendoza (GMT-03:00)",
      "America/Argentina/Rio_Gallegos (GMT-03:00)",
      "America/Argentina/Salta (GMT-03:00)",
      "America/Argentina/San_Juan (GMT-03:00)",
      "America/Argentina/San_Luis (GMT-03:00)",
      "America/Argentina/Tucuman (GMT-03:00)",
      "America/Argentina/Ushuaia (GMT-03:00)",
      "America/Aruba (GMT-04:00)",
      "America/Asuncion (GMT-04:00)",
      "America/Atikokan (GMT-05:00)",
      "America/Bahia (GMT-03:00)",
      "America/Bahia_Banderas (GMT-05:00)",
      "America/Barbados (GMT-04:00)",
      "America/Belem (GMT-03:00)",
      "America/Belize (GMT-06:00)",
      "America/Blanc-Sablon (GMT-04:00)",
      "America/Boa_Vista (GMT-04:00)",
      "America/Bogota (GMT-05:00)",
      "America/Boise (GMT-06:00)",
      "America/Cambridge_Bay (GMT-06:00)",
      "America/Campo_Grande (GMT-04:00)",
      "America/Cancun (GMT-05:00)",
      "America/Caracas (GMT-04:00)",
      "America/Cayenne (GMT-03:00)",
      "America/Cayman (GMT-05:00)",
      "America/Chicago (GMT-05:00)",
      "America/Chihuahua (GMT-06:00)",
      "America/Costa_Rica (GMT-06:00)",
      "America/Creston (GMT-07:00)",
      "America/Cuiaba (GMT-04:00)",
      "America/Curacao (GMT-04:00)",
      "America/Danmarkshavn (GMT+00:00)",
      "America/Dawson (GMT-07:00)",
      "America/Dawson_Creek (GMT-07:00)",
      "America/Denver (GMT-06:00)",
      "America/Detroit (GMT-04:00)",
      "America/Dominica (GMT-04:00)",
      "America/Edmonton (GMT-06:00)",
      "America/Eirunepe (GMT-05:00)",
      "America/El_Salvador (GMT-06:00)",
      "America/Fort_Nelson (GMT-07:00)",
      "America/Fortaleza (GMT-03:00)",
      "America/Glace_Bay (GMT-03:00)",
      "America/Godthab (GMT-02:00)",
      "America/Goose_Bay (GMT-03:00)",
      "America/Grand_Turk (GMT-04:00)",
      "America/Grenada (GMT-04:00)",
      "America/Guadeloupe (GMT-04:00)",
      "America/Guatemala (GMT-06:00)",
      "America/Guayaquil (GMT-05:00)",
      "America/Guyana (GMT-04:00)",
      "America/Halifax (GMT-03:00)",
      "America/Havana (GMT-04:00)",
      "America/Hermosillo (GMT-07:00)",
      "America/Indiana/Indianapolis (GMT-04:00)",
      "America/Indiana/Knox (GMT-05:00)",
      "America/Indiana/Marengo (GMT-04:00)",
      "America/Indiana/Petersburg (GMT-04:00)",
      "America/Indiana/Tell_City (GMT-05:00)",
      "America/Indiana/Vevay (GMT-04:00)",
      "America/Indiana/Vincennes (GMT-04:00)",
      "America/Indiana/Winamac (GMT-04:00)",
      "America/Inuvik (GMT-06:00)",
      "America/Iqaluit (GMT-04:00)",
      "America/Jamaica (GMT-05:00)",
      "America/Juneau (GMT-08:00)",
      "America/Kentucky/Louisville (GMT-04:00)",
      "America/Kentucky/Monticello (GMT-04:00)",
      "America/Kralendijk (GMT-04:00)",
      "America/La_Paz (GMT-04:00)",
      "America/Lima (GMT-05:00)",
      "America/Los_Angeles (GMT-07:00)",
      "America/Lower_Princes (GMT-04:00)",
      "America/Maceio (GMT-03:00)",
      "America/Managua (GMT-06:00)",
      "America/Manaus (GMT-04:00)",
      "America/Marigot (GMT-04:00)",
      "America/Martinique (GMT-04:00)",
      "America/Matamoros (GMT-05:00)",
      "America/Mazatlan (GMT-06:00)",
      "America/Menominee (GMT-05:00)",
      "America/Merida (GMT-05:00)",
      "America/Metlakatla (GMT-08:00)",
      "America/Mexico_City (GMT-05:00)",
      "America/Miquelon (GMT-02:00)",
      "America/Moncton (GMT-03:00)",
      "America/Monterrey (GMT-05:00)",
      "America/Montevideo (GMT-03:00)",
      "America/Montserrat (GMT-04:00)",
      "America/Nassau (GMT-04:00)",
      "America/New_York (GMT-04:00)",
      "America/Nipigon (GMT-04:00)",
      "America/Nome (GMT-08:00)",
      "America/Noronha (GMT-02:00)",
      "America/North_Dakota/Beulah (GMT-05:00)",
      "America/North_Dakota/Center (GMT-05:00)",
      "America/North_Dakota/New_Salem (GMT-05:00)",
      "America/Ojinaga (GMT-06:00)",
      "America/Panama (GMT-05:00)",
      "America/Pangnirtung (GMT-04:00)",
      "America/Paramaribo (GMT-03:00)",
      "America/Phoenix (GMT-07:00)",
      "America/Port-au-Prince (GMT-04:00)",
      "America/Port_of_Spain (GMT-04:00)",
      "America/Porto_Velho (GMT-04:00)",
      "America/Puerto_Rico (GMT-04:00)",
      "America/Punta_Arenas (GMT-03:00)",
      "America/Rainy_River (GMT-05:00)",
      "America/Rankin_Inlet (GMT-05:00)",
      "America/Recife (GMT-03:00)",
      "America/Regina (GMT-06:00)",
      "America/Resolute (GMT-05:00)",
      "America/Rio_Branco (GMT-05:00)",
      "America/Santarem (GMT-03:00)",
      "America/Santiago (GMT-03:00)",
      "America/Santo_Domingo (GMT-04:00)",
      "America/Sao_Paulo (GMT-03:00)",
      "America/Scoresbysund (GMT+00:00)",
      "America/Sitka (GMT-08:00)",
      "America/St_Barthelemy (GMT-04:00)",
      "America/St_Johns (GMT-02:30)",
      "America/St_Kitts (GMT-04:00)",
      "America/St_Lucia (GMT-04:00)",
      "America/St_Thomas (GMT-04:00)",
      "America/St_Vincent (GMT-04:00)",
      "America/Swift_Current (GMT-06:00)",
      "America/Tegucigalpa (GMT-06:00)",
      "America/Thule (GMT-03:00)",
      "America/Thunder_Bay (GMT-04:00)",
      "America/Tijuana (GMT-07:00)",
      "America/Toronto (GMT-04:00)",
      "America/Tortola (GMT-04:00)",
      "America/Vancouver (GMT-07:00)",
      "America/Whitehorse (GMT-07:00)",
      "America/Winnipeg (GMT-05:00)",
      "America/Yakutat (GMT-08:00)",
      "America/Yellowknife (GMT-06:00)",
      "Antarctica/Casey (GMT+08:00)",
      "Antarctica/Davis (GMT+07:00)",
      "Antarctica/DumontDUrville (GMT+10:00)",
      "Antarctica/Macquarie (GMT+11:00)",
      "Antarctica/Mawson (GMT+05:00)",
      "Antarctica/McMurdo (GMT+12:00)",
      "Antarctica/Palmer (GMT-03:00)",
      "Antarctica/Rothera (GMT-03:00)",
      "Antarctica/Syowa (GMT+03:00)",
      "Antarctica/Troll (GMT+02:00)",
      "Antarctica/Vostok (GMT+06:00)",
      "Arctic/Longyearbyen (GMT+02:00)",
      "Asia/Aden (GMT+03:00)",
      "Asia/Almaty (GMT+06:00)",
      "Asia/Amman (GMT+03:00)",
      "Asia/Anadyr (GMT+12:00)",
      "Asia/Aqtau (GMT+05:00)",
      "Asia/Aqtobe (GMT+05:00)",
      "Asia/Ashgabat (GMT+05:00)",
      "Asia/Atyrau (GMT+05:00)",
      "Asia/Baghdad (GMT+03:00)",
      "Asia/Bahrain (GMT+03:00)",
      "Asia/Baku (GMT+04:00)",
      "Asia/Bangkok (GMT+07:00)",
      "Asia/Barnaul (GMT+07:00)",
      "Asia/Beirut (GMT+03:00)",
      "Asia/Bishkek (GMT+06:00)",
      "Asia/Brunei (GMT+08:00)",
      "Asia/Chita (GMT+09:00)",
      "Asia/Choibalsan (GMT+08:00)",
      "Asia/Colombo (GMT+05:30)",
      "Asia/Damascus (GMT+03:00)",
      "Asia/Dhaka (GMT+06:00)",
      "Asia/Dili (GMT+09:00)",
      "Asia/Dubai (GMT+04:00)",
      "Asia/Dushanbe (GMT+05:00)",
      "Asia/Famagusta (GMT+03:00)",
      "Asia/Gaza (GMT+03:00)",
      "Asia/Hebron (GMT+03:00)",
      "Asia/Ho_Chi_Minh (GMT+07:00)",
      "Asia/Hong_Kong (GMT+08:00)",
      "Asia/Hovd (GMT+07:00)",
      "Asia/Irkutsk (GMT+08:00)",
      "Asia/Jakarta (GMT+07:00)",
      "Asia/Jayapura (GMT+09:00)",
      "Asia/Jerusalem (GMT+03:00)",
      "Asia/Kabul (GMT+04:30)",
      "Asia/Kamchatka (GMT+12:00)",
      "Asia/Karachi (GMT+05:00)",
      "Asia/Kathmandu (GMT+05:45)",
      "Asia/Khandyga (GMT+09:00)",
      "Asia/Kolkata (GMT+05:30)",
      "Asia/Krasnoyarsk (GMT+07:00)",
      "Asia/Kuala_Lumpur (GMT+08:00)",
      "Asia/Kuching (GMT+08:00)",
      "Asia/Kuwait (GMT+03:00)",
      "Asia/Macau (GMT+08:00)",
      "Asia/Magadan (GMT+11:00)",
      "Asia/Makassar (GMT+08:00)",
      "Asia/Manila (GMT+08:00)",
      "Asia/Muscat (GMT+04:00)",
      "Asia/Nicosia (GMT+03:00)",
      "Asia/Novokuznetsk (GMT+07:00)",
      "Asia/Novosibirsk (GMT+07:00)",
      "Asia/Omsk (GMT+06:00)",
      "Asia/Oral (GMT+05:00)",
      "Asia/Phnom_Penh (GMT+07:00)",
      "Asia/Pontianak (GMT+07:00)",
      "Asia/Pyongyang (GMT+09:00)",
      "Asia/Qatar (GMT+03:00)",
      "Asia/Qyzylorda (GMT+06:00)",
      "Asia/Riyadh (GMT+03:00)",
      "Asia/Sakhalin (GMT+11:00)",
      "Asia/Samarkand (GMT+05:00)",
      "Asia/Seoul (GMT+09:00)",
      "Asia/Shanghai (GMT+08:00)",
      "Asia/Singapore (GMT+08:00)",
      "Asia/Srednekolymsk (GMT+11:00)",
      "Asia/Taipei (GMT+08:00)",
      "Asia/Tashkent (GMT+05:00)",
      "Asia/Tbilisi (GMT+04:00)",
      "Asia/Tehran (GMT+04:30)",
      "Asia/Thimphu (GMT+06:00)",
      "Asia/Tokyo (GMT+09:00)",
      "Asia/Tomsk (GMT+07:00)",
      "Asia/Ulaanbaatar (GMT+08:00)",
      "Asia/Urumqi (GMT+06:00)",
      "Asia/Ust-Nera (GMT+10:00)",
      "Asia/Vientiane (GMT+07:00)",
      "Asia/Vladivostok (GMT+10:00)",
      "Asia/Yakutsk (GMT+09:00)",
      "Asia/Yangon (GMT+06:30)",
      "Asia/Yekaterinburg (GMT+05:00)",
      "Asia/Yerevan (GMT+04:00)",
      "Atlantic/Azores (GMT+00:00)",
      "Atlantic/Bermuda (GMT-03:00)",
      "Atlantic/Canary (GMT+01:00)",
      "Atlantic/Cape_Verde (GMT-01:00)",
      "Atlantic/Faroe (GMT+01:00)",
      "Atlantic/Madeira (GMT+01:00)",
      "Atlantic/Reykjavik (GMT+00:00)",
      "Atlantic/South_Georgia (GMT-02:00)",
      "Atlantic/St_Helena (GMT+00:00)",
      "Atlantic/Stanley (GMT-03:00)",
      "Australia/Adelaide (GMT+09:30)",
      "Australia/Brisbane (GMT+10:00)",
      "Australia/Broken_Hill (GMT+09:30)",
      "Australia/Currie (GMT+10:00)",
      "Australia/Darwin (GMT+09:30)",
      "Australia/Eucla (GMT+08:45)",
      "Australia/Hobart (GMT+10:00)",
      "Australia/Lindeman (GMT+10:00)",
      "Australia/Lord_Howe (GMT+10:30)",
      "Australia/Melbourne (GMT+10:00)",
      "Australia/Perth (GMT+08:00)",
      "Australia/Sydney (GMT+10:00)",
      "Europe/Amsterdam (GMT+02:00)",
      "Europe/Andorra (GMT+02:00)",
      "Europe/Astrakhan (GMT+04:00)",
      "Europe/Athens (GMT+03:00)",
      "Europe/Belgrade (GMT+02:00)",
      "Europe/Berlin (GMT+02:00)",
      "Europe/Bratislava (GMT+02:00)",
      "Europe/Brussels (GMT+02:00)",
      "Europe/Bucharest (GMT+03:00)",
      "Europe/Budapest (GMT+02:00)",
      "Europe/Busingen (GMT+02:00)",
      "Europe/Chisinau (GMT+03:00)",
      "Europe/Copenhagen (GMT+02:00)",
      "Europe/Dublin (GMT+01:00)",
      "Europe/Gibraltar (GMT+02:00)",
      "Europe/Guernsey (GMT+01:00)",
      "Europe/Helsinki (GMT+03:00)",
      "Europe/Isle_of_Man (GMT+01:00)",
      "Europe/Istanbul (GMT+03:00)",
      "Europe/Jersey (GMT+01:00)",
      "Europe/Kaliningrad (GMT+02:00)",
      "Europe/Kiev (GMT+03:00)",
      "Europe/Kirov (GMT+03:00)",
      "Europe/Lisbon (GMT+01:00)",
      "Europe/Ljubljana (GMT+02:00)",
      "Europe/London (GMT+01:00)",
      "Europe/Luxembourg (GMT+02:00)",
      "Europe/Madrid (GMT+02:00)",
      "Europe/Malta (GMT+02:00)",
      "Europe/Mariehamn (GMT+03:00)",
      "Europe/Minsk (GMT+03:00)",
      "Europe/Monaco (GMT+02:00)",
      "Europe/Moscow (GMT+03:00)",
      "Europe/Oslo (GMT+02:00)",
      "Europe/Paris (GMT+02:00)",
      "Europe/Podgorica (GMT+02:00)",
      "Europe/Prague (GMT+02:00)",
      "Europe/Riga (GMT+03:00)",
      "Europe/Rome (GMT+02:00)",
      "Europe/Samara (GMT+04:00)",
      "Europe/San_Marino (GMT+02:00)",
      "Europe/Sarajevo (GMT+02:00)",
      "Europe/Saratov (GMT+04:00)",
      "Europe/Simferopol (GMT+03:00)",
      "Europe/Skopje (GMT+02:00)",
      "Europe/Sofia (GMT+03:00)",
      "Europe/Stockholm (GMT+02:00)",
      "Europe/Tallinn (GMT+03:00)",
      "Europe/Tirane (GMT+02:00)",
      "Europe/Ulyanovsk (GMT+04:00)",
      "Europe/Uzhgorod (GMT+03:00)",
      "Europe/Vaduz (GMT+02:00)",
      "Europe/Vatican (GMT+02:00)",
      "Europe/Vienna (GMT+02:00)",
      "Europe/Vilnius (GMT+03:00)",
      "Europe/Volgograd (GMT+03:00)",
      "Europe/Warsaw (GMT+02:00)",
      "Europe/Zagreb (GMT+02:00)",
      "Europe/Zaporozhye (GMT+03:00)",
      "Europe/Zurich (GMT+02:00)",
      "Indian/Antananarivo (GMT+03:00)",
      "Indian/Chagos (GMT+06:00)",
      "Indian/Christmas (GMT+07:00)",
      "Indian/Cocos (GMT+06:30)",
      "Indian/Comoro (GMT+03:00)",
      "Indian/Kerguelen (GMT+05:00)",
      "Indian/Mahe (GMT+04:00)",
      "Indian/Maldives (GMT+05:00)",
      "Indian/Mauritius (GMT+04:00)",
      "Indian/Mayotte (GMT+03:00)",
      "Indian/Reunion (GMT+04:00)",
      "Pacific/Apia (GMT+13:00)",
      "Pacific/Auckland (GMT+12:00)",
      "Pacific/Bougainville (GMT+11:00)",
      "Pacific/Chatham (GMT+12:45)",
      "Pacific/Chuuk (GMT+10:00)",
      "Pacific/Easter (GMT-05:00)",
      "Pacific/Efate (GMT+11:00)",
      "Pacific/Enderbury (GMT+13:00)",
      "Pacific/Fakaofo (GMT+13:00)",
      "Pacific/Fiji (GMT+12:00)",
      "Pacific/Funafuti (GMT+12:00)",
      "Pacific/Galapagos (GMT-06:00)",
      "Pacific/Gambier (GMT-09:00)",
      "Pacific/Guadalcanal (GMT+11:00)",
      "Pacific/Guam (GMT+10:00)",
      "Pacific/Honolulu (GMT-10:00)",
      "Pacific/Kiritimati (GMT+14:00)",
      "Pacific/Kosrae (GMT+11:00)",
      "Pacific/Kwajalein (GMT+12:00)",
      "Pacific/Majuro (GMT+12:00)",
      "Pacific/Marquesas (GMT-09:30)",
      "Pacific/Midway (GMT-11:00)",
      "Pacific/Nauru (GMT+12:00)",
      "Pacific/Niue (GMT-11:00)",
      "Pacific/Norfolk (GMT+11:00)",
      "Pacific/Noumea (GMT+11:00)",
      "Pacific/Pago_Pago (GMT-11:00)",
      "Pacific/Palau (GMT+09:00)",
      "Pacific/Pitcairn (GMT-08:00)",
      "Pacific/Pohnpei (GMT+11:00)",
      "Pacific/Port_Moresby (GMT+10:00)",
      "Pacific/Rarotonga (GMT-10:00)",
      "Pacific/Saipan (GMT+10:00)",
      "Pacific/Tahiti (GMT-10:00)",
      "Pacific/Tarawa (GMT+12:00)",
      "Pacific/Tongatapu (GMT+13:00)",
      "Pacific/Wake (GMT+12:00)",
      "Pacific/Wallis (GMT+12:00)",
      "UTC (GMT+00:00)"
    ],
    "countryCode": {
      "Afghanistan": "93",
      "Åland Islands": "358",
      "Albania": "355",
      "Algeria": "213",
      "American Samoa": "1684",
      "Andorra": "376",
      "Angola": "244",
      "Anguilla": "1264",
      "Antarctica": "672",
      "Antigua and Barbuda": "1268",
      "Argentina": "54",
      "Armenia": "374",
      "Aruba": "297",
      "Australia": "61",
      "Austria": "43",
      "Azerbaijan": "994",
      "Bahamas": "1242",
      "Bahrain": "973",
      "Bangladesh": "880",
      "Barbados": "1246",
      "Belarus": "375",
      "Belgium": "32",
      "Belize": "501",
      "Benin": "229",
      "Bermuda": "1441",
      "Bhutan": "975",
      "Bolivia (Plurinational State of)": "591",
      "Bonaire, Sint Eustatius and Saba": "5997",
      "Bosnia and Herzegovina": "387",
      "Botswana": "267",
      "Bouvet Island": "",
      "Brazil": "55",
      "British Indian Ocean Territory": "246",
      "United States Minor Outlying Islands": "",
      "Virgin Islands (British)": "1284",
      "Virgin Islands (U.S.)": "1 340",
      "Brunei Darussalam": "673",
      "Bulgaria": "359",
      "Burkina Faso": "226",
      "Burundi": "257",
      "Cambodia": "855",
      "Cameroon": "237",
      "Canada": "1",
      "Cabo Verde": "238",
      "Cayman Islands": "1345",
      "Central African Republic": "236",
      "Chad": "235",
      "Chile": "56",
      "China": "86",
      "Christmas Island": "61",
      "Cocos (Keeling) Islands": "61",
      "Colombia": "57",
      "Comoros": "269",
      "Congo": "242",
      "Congo (Democratic Republic of the)": "243",
      "Cook Islands": "682",
      "Costa Rica": "506",
      "Croatia": "385",
      "Cuba": "53",
      "Curaçao": "599",
      "Cyprus": "357",
      "Czech Republic": "420",
      "Denmark": "45",
      "Djibouti": "253",
      "Dominica": "1767",
      "Dominican Republic": "1809",
      "Ecuador": "593",
      "Egypt": "20",
      "El Salvador": "503",
      "Equatorial Guinea": "240",
      "Eritrea": "291",
      "Estonia": "372",
      "Ethiopia": "251",
      "Falkland Islands (Malvinas)": "500",
      "Faroe Islands": "298",
      "Fiji": "679",
      "Finland": "358",
      "France": "33",
      "French Guiana": "594",
      "French Polynesia": "689",
      "French Southern Territories": "",
      "Gabon": "241",
      "Gambia": "220",
      "Georgia": "995",
      "Germany": "49",
      "Ghana": "233",
      "Gibraltar": "350",
      "Greece": "30",
      "Greenland": "299",
      "Grenada": "1473",
      "Guadeloupe": "590",
      "Guam": "1671",
      "Guatemala": "502",
      "Guernsey": "44",
      "Guinea": "224",
      "Guinea-Bissau": "245",
      "Guyana": "592",
      "Haiti": "509",
      "Heard Island and McDonald Islands": "",
      "Holy See": "379",
      "Honduras": "504",
      "Hong Kong": "852",
      "Hungary": "36",
      "Iceland": "354",
      "India": "91",
      "Indonesia": "62",
      "Côte d'Ivoire": "225",
      "Iran (Islamic Republic of)": "98",
      "Iraq": "964",
      "Ireland": "353",
      "Isle of Man": "44",
      "Israel": "972",
      "Italy": "39",
      "Jamaica": "1876",
      "Japan": "81",
      "Jersey": "44",
      "Jordan": "962",
      "Kazakhstan": "76",
      "Kenya": "254",
      "Kiribati": "686",
      "Kuwait": "965",
      "Kyrgyzstan": "996",
      "Lao People's Democratic Republic": "856",
      "Latvia": "371",
      "Lebanon": "961",
      "Lesotho": "266",
      "Liberia": "231",
      "Libya": "218",
      "Liechtenstein": "423",
      "Lithuania": "370",
      "Luxembourg": "352",
      "Macao": "853",
      "Macedonia (the former Yugoslav Republic of)": "389",
      "Madagascar": "261",
      "Malawi": "265",
      "Malaysia": "60",
      "Maldives": "960",
      "Mali": "223",
      "Malta": "356",
      "Marshall Islands": "692",
      "Martinique": "596",
      "Mauritania": "222",
      "Mauritius": "230",
      "Mayotte": "262",
      "Mexico": "52",
      "Micronesia (Federated States of)": "691",
      "Moldova (Republic of)": "373",
      "Monaco": "377",
      "Mongolia": "976",
      "Montenegro": "382",
      "Montserrat": "1664",
      "Morocco": "212",
      "Mozambique": "258",
      "Myanmar": "95",
      "Namibia": "264",
      "Nauru": "674",
      "Nepal": "977",
      "Netherlands": "31",
      "New Caledonia": "687",
      "New Zealand": "64",
      "Nicaragua": "505",
      "Niger": "227",
      "Nigeria": "234",
      "Niue": "683",
      "Norfolk Island": "672",
      "Korea (Democratic People's Republic of)": "850",
      "Northern Mariana Islands": "1670",
      "Norway": "47",
      "Oman": "968",
      "Pakistan": "92",
      "Palau": "680",
      "Palestine, State of": "970",
      "Panama": "507",
      "Papua New Guinea": "675",
      "Paraguay": "595",
      "Peru": "51",
      "Philippines": "63",
      "Pitcairn": "64",
      "Poland": "48",
      "Portugal": "351",
      "Puerto Rico": "1787",
      "Qatar": "974",
      "Republic of Kosovo": "383",
      "Réunion": "262",
      "Romania": "40",
      "Russian Federation": "7",
      "Rwanda": "250",
      "Saint Barthélemy": "590",
      "Saint Helena, Ascension and Tristan da Cunha": "290",
      "Saint Kitts and Nevis": "1869",
      "Saint Lucia": "1758",
      "Saint Martin (French part)": "590",
      "Saint Pierre and Miquelon": "508",
      "Saint Vincent and the Grenadines": "1784",
      "Samoa": "685",
      "San Marino": "378",
      "Sao Tome and Principe": "239",
      "Saudi Arabia": "966",
      "Senegal": "221",
      "Serbia": "381",
      "Seychelles": "248",
      "Sierra Leone": "232",
      "Singapore": "65",
      "Sint Maarten (Dutch part)": "1721",
      "Slovakia": "421",
      "Slovenia": "386",
      "Solomon Islands": "677",
      "Somalia": "252",
      "South Africa": "27",
      "South Georgia and the South Sandwich Islands": "500",
      "Korea (Republic of)": "82",
      "South Sudan": "211",
      "Spain": "34",
      "Sri Lanka": "94",
      "Sudan": "249",
      "Suriname": "597",
      "Svalbard and Jan Mayen": "4779",
      "Swaziland": "268",
      "Sweden": "46",
      "Switzerland": "41",
      "Syrian Arab Republic": "963",
      "Taiwan": "886",
      "Tajikistan": "992",
      "Tanzania, United Republic of": "255",
      "Thailand": "66",
      "Timor-Leste": "670",
      "Togo": "228",
      "Tokelau": "690",
      "Tonga": "676",
      "Trinidad and Tobago": "1868",
      "Tunisia": "216",
      "Turkey": "90",
      "Turkmenistan": "993",
      "Turks and Caicos Islands": "1649",
      "Tuvalu": "688",
      "Uganda": "256",
      "Ukraine": "380",
      "United Arab Emirates": "971",
      "United Kingdom of Great Britain and Northern Ireland": "44",
      "United States of America": "1",
      "Uruguay": "598",
      "Uzbekistan": "998",
      "Vanuatu": "678",
      "Venezuela (Bolivarian Republic of)": "58",
      "Viet Nam": "84",
      "Wallis and Futuna": "681",
      "Western Sahara": "212",
      "Yemen": "967",
      "Zambia": "260",
      "Zimbabwe": "263"
    }
  }

