<?xml version="1.0" encoding="utf-8"?>
<!-- Generator: Adobe Illustrator 23.0.1, SVG Export Plug-In . SVG Version: 6.00 Build 0)  -->
<svg version="1.1" xmlns="http://www.w3.org/2000/svg" xmlns:xlink="http://www.w3.org/1999/xlink" x="0px" y="0px"
	 viewBox="0 0 21 21" style="enable-background:new 0 0 21 21;" xml:space="preserve">
<style type="text/css">
	.st0{fill:#FFFFFF;}
</style>
<g id="Add_Analysis_window">
</g>
<g id="Layer_2">
	<path class="st0" d="M21,4.5c0-2.2-5.4-3.3-10.5-3.3S0,2.3,0,4.5c0,0,0,0.1,0,0.1h0l0,5.9c0,0,0,0.1,0,0.1h0l0,5.9
		c0.4,2.4,5.2,3.4,10.1,3.4c0.6,0,1.2,0,1.9,0c4.3-0.2,8.9-1.2,9-3.4v-5.8h0c0-0.1,0-0.1,0-0.2V4.5L21,4.5C21,4.5,21,4.5,21,4.5z
		 M0.7,5.7c1.6,1.4,5.8,2.1,9.8,2.1s8.2-0.7,9.8-2.1v4.7c-0.1,1.4-3.6,2.5-8.4,2.8c-5.2,0.3-10.9-0.6-11.3-2.8V5.7z M10.5,1.8
		c5.8,0,9.8,1.4,9.8,2.7s-4,2.7-9.8,2.7S0.7,5.7,0.7,4.5S4.7,1.8,10.5,1.8z M11.9,19.1c-5.2,0.3-10.9-0.6-11.3-2.8v-4.7
		c1.6,1.6,5.5,2.2,9.4,2.2c0.6,0,1.2,0,1.9,0c3.3-0.2,6.9-0.8,8.3-2.2v4.7C20.2,17.7,16.7,18.9,11.9,19.1z"/>
</g>
</svg>
