<?xml version="1.0" encoding="utf-8"?>
<!-- Generator: Adobe Illustrator 24.3.0, SVG Export Plug-In . SVG Version: 6.00 Build 0)  -->
<svg version="1.1" id="Layer_1" xmlns="http://www.w3.org/2000/svg" xmlns:xlink="http://www.w3.org/1999/xlink" x="0px" y="0px"
	 viewBox="0 0 21 21" style="enable-background:new 0 0 21 21;" xml:space="preserve">
<style type="text/css">
	.st0{fill:#FFFFFF;}
</style>
<g>
	<path class="st0" d="M10.5,1.4l9.2,5.2v13.2h-6v-5.4v-1.2l-1.2,0l-4,0l-1.2,0l0,1.2l0,5.4h-6V6.6L10.5,1.4 M10.5,0L0.1,5.9V21h8.4
		l0-6.6l4,0V21h8.4V5.9L10.5,0L10.5,0z"/>
	<path class="st0" d="M12.2,8.7H8.8c-0.3,0-0.6-0.3-0.6-0.6s0.3-0.6,0.6-0.6h3.5c0.3,0,0.6,0.3,0.6,0.6S12.6,8.7,12.2,8.7z"/>
</g>
</svg>
