<?xml version="1.0" encoding="utf-8"?>
<!-- Generator: Adobe Illustrator 23.0.1, SVG Export Plug-In . SVG Version: 6.00 Build 0)  -->
<svg version="1.1" id="Add_Analysis_window" xmlns="http://www.w3.org/2000/svg" xmlns:xlink="http://www.w3.org/1999/xlink"
	 x="0px" y="0px" viewBox="0 0 21 21" style="enable-background:new 0 0 21 21;" xml:space="preserve">
<style type="text/css">
	.st0{fill:#FFFFFF;}
</style>
<g>
	<path class="st0" d="M18.2,7.8c-0.5-0.1-1.1-0.1-1.6-0.2V6.1c0-1.6-0.6-3.1-1.8-4.3C13.6,0.7,12.1,0,10.5,0c-3.3,0-6.1,2.7-6.1,6
		v1.6C3.9,7.7,3.4,7.7,2.8,7.8l-0.3,0v12.5l0.3,0c2.6,0.4,5.1,0.7,7.7,0.7c2.6,0,5.1-0.2,7.7-0.7l0.3,0V7.8L18.2,7.8z M5.1,6.1
		c0-3,2.4-5.4,5.4-5.4c1.4,0,2.8,0.6,3.8,1.6c1,1,1.6,2.4,1.6,3.8v1.5c-3.6-0.3-7.2-0.3-10.7,0V6.1z M17.8,19.7
		c-4.8,0.8-9.7,0.8-14.6,0V8.4c4.8-0.6,9.7-0.6,14.6,0V19.7z"/>
	<path class="st0" d="M9,14.3c0,0.6,0.4,1.2,0.9,1.4c0.4,0.1,0.7,0.1,1.1,0c0.5-0.2,0.9-0.8,0.9-1.4c0-0.8-0.7-1.5-1.5-1.5
		C9.7,12.8,9,13.5,9,14.3z"/>
</g>
</svg>
