<?xml version="1.0" encoding="utf-8"?>
<!-- Generator: Adobe Illustrator 25.0.0, SVG Export Plug-In . SVG Version: 6.00 Build 0)  -->
<svg version="1.1" id="Layer_1" xmlns="http://www.w3.org/2000/svg" xmlns:xlink="http://www.w3.org/1999/xlink" x="0px" y="0px"
	 viewBox="0 0 21 21" style="enable-background:new 0 0 21 21;" xml:space="preserve">
<g>
	<path d="M17.4,21H0.9V1.5h11.7l4.8,3.8V21z M2.1,19.8h14V5.9l-4-3.2h-10V19.8z"/>
	<path d="M19.5,19.5c-0.3,0-0.6-0.3-0.6-0.6V4.4l-4.2-3.3c-0.3-0.2-0.3-0.6-0.1-0.8c0.2-0.3,0.6-0.3,0.8-0.1l4.6,3.7v15.1
		C20.1,19.2,19.8,19.5,19.5,19.5z"/>
	<path d="M8.2,16.9l-3.3-4c-0.2-0.3-0.2-0.6,0.1-0.8c0.3-0.2,0.6-0.2,0.8,0.1L8.2,15l4.2-5.6c0.2-0.3,0.6-0.3,0.8-0.1
		c0.3,0.2,0.3,0.6,0.1,0.8L8.2,16.9z"/>
</g>
</svg>
