<?xml version="1.0" encoding="utf-8"?>
<!-- Generator: Adobe Illustrator 24.3.0, SVG Export Plug-In . SVG Version: 6.00 Build 0)  -->
<svg version="1.1" id="Layer_1" xmlns="http://www.w3.org/2000/svg" xmlns:xlink="http://www.w3.org/1999/xlink" x="0px" y="0px"
	 viewBox="0 0 21 21" style="enable-background:new 0 0 21 21;" xml:space="preserve">
<g>
	<path d="M14.3,0h-12v21h16.8V4.8L14.3,0z M18.4,20.3H3.1V0.8H14l4.4,4.3V20.3z"/>
	<rect x="7.6" y="15.4" width="6.2" height="0.8"/>
	<rect x="7.6" y="11.8" width="6.2" height="0.8"/>
	<rect x="7.6" y="8.2" width="6.2" height="0.8"/>
</g>
</svg>
