<?xml version="1.0" standalone="no"?>
<!DOCTYPE svg PUBLIC "-//W3C//DTD SVG 20010904//EN"
 "http://www.w3.org/TR/2001/REC-SVG-20010904/DTD/svg10.dtd">
<svg version="1.0" xmlns="http://www.w3.org/2000/svg"
 width="980.000000pt" height="906.000000pt" viewBox="0 0 980.000000 906.000000"
 preserveAspectRatio="xMidYMid meet">
<metadata>
Created by potrace 1.15, written by Peter Selinger 2001-2017
</metadata>
<g transform="translate(0.000000,906.000000) scale(0.100000,-0.100000)"
fill="#000000" stroke="none">
<path d="M7045 9050 c-349 -29 -769 -168 -1037 -342 -270 -176 -824 -713
-3503 -3399 -1679 -1683 -2034 -2045 -2122 -2164 -175 -234 -316 -564 -358
-836 -36 -234 -29 -565 15 -771 57 -265 202 -570 373 -786 232 -294 543 -516
912 -650 161 -58 262 -80 425 -92 481 -33 751 14 1115 196 177 89 293 173 474
343 91 85 925 913 1852 1839 l1686 1683 77 164 c137 295 179 458 179 710 -1
381 -138 723 -402 997 -120 126 -233 211 -380 287 -222 114 -422 161 -680 161
-242 0 -429 -44 -655 -154 -89 -44 -134 -74 -231 -157 -66 -57 -696 -678
-1400 -1381 l-1280 -1277 257 -257 256 -257 1154 1145 c634 630 1217 1205
1294 1278 221 207 298 258 454 301 69 19 262 17 340 -4 223 -61 416 -246 496
-477 24 -68 25 -83 22 -234 l-3 -161 -38 -70 c-91 -170 -243 -331 -1492 -1584
-1074 -1078 -1879 -1873 -2091 -2065 -153 -140 -280 -210 -460 -256 -188 -49
-480 -46 -660 5 -295 84 -567 296 -724 564 -171 294 -209 668 -103 1005 63
202 108 263 464 636 337 353 2717 2746 3631 3651 1225 1213 1330 1315 1444
1391 187 125 368 202 587 250 91 20 132 22 372 23 189 0 291 -4 340 -14 268
-52 616 -228 826 -418 297 -269 465 -569 555 -993 24 -112 24 -416 1 -575 -49
-322 -181 -619 -366 -819 -175 -190 -1071 -1097 -2652 -2687 l-1638 -1646 258
-257 257 -257 1725 1728 c2719 2724 2733 2738 2868 2987 289 533 384 1114 275
1680 -95 491 -317 920 -659 1274 -306 317 -684 544 -1109 667 -263 75 -605
102 -941 75z"/>
</g>
</svg>
