<?xml version="1.0" encoding="utf-8"?>
<!-- Generator: Adobe Illustrator 23.0.3, SVG Export Plug-In . SVG Version: 6.00 Build 0)  -->
<svg version="1.1" xmlns="http://www.w3.org/2000/svg" xmlns:xlink="http://www.w3.org/1999/xlink" x="0px" y="0px"
	 viewBox="0 0 21 21" style="enable-background:new 0 0 21 21;" xml:space="preserve">
<style type="text/css">
	.st0{fill:#FFFFFF;}
</style>
<g id="Layer_1">
</g>
<g id="Isolation_Mode">
	<g>
		<path class="st0" d="M10.5,0.7c5.4,0,9.8,4.4,9.8,9.8s-4.4,9.8-9.8,9.8s-9.8-4.4-9.8-9.8S5.1,0.7,10.5,0.7 M10.5,0
			C4.7,0,0,4.7,0,10.5S4.7,21,10.5,21S21,16.3,21,10.5S16.3,0,10.5,0L10.5,0z"/>
		<g>
			<path class="st0" d="M9.7,13.2c0-0.5,0.1-1,0.3-1.5c0.2-0.5,0.4-0.9,0.8-1.3c0.1-0.1,0.3-0.3,0.5-0.5c0.6-0.6,0.9-1.1,0.9-1.7
				c0-0.5-0.2-0.9-0.5-1.3S11,6.5,10.4,6.5C9.9,6.5,9.6,6.6,9.3,7C9.1,7.1,9,7.4,8.9,7.6C8.8,7.8,8.8,8.1,8.8,8.3l-1.5,0
				c0-0.5,0.1-0.9,0.2-1.3C7.7,6.6,7.9,6.3,8.3,6C8.9,5.3,9.6,5,10.5,5c0.9,0,1.7,0.3,2.3,0.9c0.6,0.6,0.9,1.4,0.9,2.3
				c0,0.8-0.4,1.7-1.3,2.6l-0.1,0.1c-0.4,0.4-0.7,0.8-0.9,1.2c-0.1,0.2-0.2,0.4-0.2,0.6c0,0.2-0.1,0.4-0.1,0.6H9.7z M9.7,16v-1.7
				h1.5V16H9.7z"/>
		</g>
	</g>
</g>
</svg>
