<?xml version="1.0" encoding="utf-8"?>
<!-- Generator: Adobe Illustrator 22.1.0, SVG Export Plug-In . SVG Version: 6.00 Build 0)  -->
<svg version="1.1" id="Layer_1" xmlns="http://www.w3.org/2000/svg" xmlns:xlink="http://www.w3.org/1999/xlink" x="0px" y="0px"
	 viewBox="0 0 47.5 47.5" style="enable-background:new 0 0 47.5 47.5;" xml:space="preserve">
<style type="text/css">
	.st0{fill:#CFCFCF;}
	.st1{fill:#A5A5A5;}
</style>
<g>
	<path class="st0" d="M23.8,47.5C10.7,47.5,0,36.8,0,23.8S10.7,0,23.8,0s23.8,10.7,23.8,23.8S36.8,47.5,23.8,47.5z M23.8,6
		C14,6,6,14,6,23.8s8,17.8,17.8,17.8s17.8-8,17.8-17.8S33.5,6,23.8,6z"/>
	<path class="st1" d="M46.6,30.1l-5.8-1.6c0.4-1.5,0.6-3.1,0.6-4.7c0-7.9-5.3-14.9-12.9-17.1l1.6-5.8c10.2,2.9,17.3,12.3,17.3,22.9
		C47.5,25.9,47.2,28,46.6,30.1z"/>
	<path class="st1" d="M0.9,17.2l5.8,1.6C6.2,20.4,6,22,6,23.6c-0.1,7.9,5.2,15,12.8,17.2l-1.7,5.8C7,43.6-0.1,34.1,0,23.6
		C0,21.4,0.3,19.3,0.9,17.2z"/>
</g>
</svg>
