<?xml version="1.0" encoding="utf-8"?>
<!-- Generator: Adobe Illustrator 22.1.0, SVG Export Plug-In . SVG Version: 6.00 Build 0)  -->
<svg version="1.1" id="Layer_1" xmlns="http://www.w3.org/2000/svg" xmlns:xlink="http://www.w3.org/1999/xlink" x="0px" y="0px"
	 viewBox="0 0 30.9 31.1" style="enable-background:new 0 0 30.9 31.1;" xml:space="preserve">
<style type="text/css">
	.st0{fill:#FFFFFF;}
</style>
<g>
	<g id="work-2_1_">
		<path class="st0" d="M28.4,31.1H2.5C1.1,31.1,0,30,0,28.6V2.5C0,1.1,1.1,0,2.5,0h25.9c1.4,0,2.5,1.1,2.5,2.5v26.1
			C30.9,30,29.8,31.1,28.4,31.1z M2.5,1C1.7,1,1,1.7,1,2.5v26.1c0,0.8,0.7,1.5,1.5,1.5h25.9c0.8,0,1.5-0.7,1.5-1.5V2.5
			c0-0.8-0.7-1.5-1.5-1.5H2.5z"/>
	</g>
	<polygon class="st0" points="14.9,23.7 7.9,14.4 8.7,13.8 14.7,21.9 22.8,7.6 23.6,8 	"/>
</g>
</svg>
