<?xml version="1.0" encoding="utf-8"?>
<!-- Generator: Adobe Illustrator 23.0.3, SVG Export Plug-In . SVG Version: 6.00 Build 0)  -->
<svg version="1.1" xmlns="http://www.w3.org/2000/svg" xmlns:xlink="http://www.w3.org/1999/xlink" x="0px" y="0px"
	 viewBox="0 0 21 21" style="enable-background:new 0 0 21 21;" xml:space="preserve">
<style type="text/css">
	.st0{fill:#FFFFFF;}
</style>
<g id="Layer_1">
</g>
<g id="Layer_3">
	<g>
		<path class="st0" d="M15.7,3v4.8v0.4L16,8.4l3.6,2L16,12.6l-0.3,0.2v0.4V18h-15V3H15.7 M16.4,2.3H0v16.4h16.4v-5.5l4.6-2.8
			l-4.6-2.6V2.3L16.4,2.3z"/>
		<rect x="5.2" y="10.2" class="st0" width="6" height="0.7"/>
	</g>
</g>
</svg>
