<?xml version="1.0" encoding="utf-8"?>
<!-- Generator: Adobe Illustrator 22.1.0, SVG Export Plug-In . SVG Version: 6.00 Build 0)  -->
<svg version="1.1" id="Layer_1" xmlns="http://www.w3.org/2000/svg" xmlns:xlink="http://www.w3.org/1999/xlink" x="0px" y="0px"
	 viewBox="0 0 27 27" style="enable-background:new 0 0 27 27;" xml:space="preserve">
<style type="text/css">
	.st0{fill:#FFFFFF;}
</style>
<g>
	<path class="st0" d="M25.6,1.2H12.1c-0.7,0-1.3,0.6-1.3,1.3V16l-1.2,0.4l0-5.7l0-0.1C9.3,9.4,8.5,8.9,7.3,9L7.2,9L1.5,13
		c-1,0.6-1.5,1.4-1.7,2.6v6.4l0,0.1c0.3,1.6,1,2.6,2.3,2.9l3.4,0.7l0.1,0c0,0,0,0,0,0c2,0,3.3-1,3.8-2.9l1.3-0.5v3.2
		c0,0.7,0.6,1.3,1.3,1.3h13.5c0.7,0,1.3-0.6,1.3-1.3V2.5C26.8,1.8,26.3,1.2,25.6,1.2z M8.7,22l-0.1,0.2c-0.4,1.6-1.3,2.4-3,2.4
		L2.3,24c-0.8-0.2-1.4-0.9-1.6-2.1l0-6.3c0.1-0.8,0.5-1.5,1.3-1.9l5.5-3.8c0.7-0.1,1,0.2,1.1,0.9l0.1,6.8l6-1.9
		c0.9-0.1,1.7,0.3,2,1.1c0.4,0.8,0.1,1.8-0.7,2.5L8.7,22z M25.9,25.4c0,0.2-0.2,0.4-0.4,0.4H12.1c-0.2,0-0.4-0.2-0.4-0.4v-3.5
		l4.7-1.8l0.1-0.1c1.1-0.9,1.5-2.4,1-3.6c-0.5-1.1-1.7-1.8-3-1.6l-2.8,0.9V2.5c0-0.2,0.2-0.4,0.4-0.4h13.5c0.2,0,0.4,0.2,0.4,0.4
		V25.4z"/>
	<rect x="14.8" y="6.1" class="st0" width="8.1" height="0.9"/>
	<rect x="14.8" y="10.1" class="st0" width="8.1" height="0.9"/>
	<rect x="18" y="14" class="st0" width="4.8" height="0.9"/>
	<rect x="18.5" y="19.1" class="st0" width="4.4" height="0.9"/>
</g>
</svg>
