<?xml version="1.0" encoding="utf-8"?>
<!-- Generator: Adobe Illustrator 22.1.0, SVG Export Plug-In . SVG Version: 6.00 Build 0)  -->
<svg version="1.1" id="Reporting_Button" xmlns="http://www.w3.org/2000/svg" xmlns:xlink="http://www.w3.org/1999/xlink" x="0px"
	 y="0px" viewBox="0 0 27.4 27.3" style="enable-background:new 0 0 27.4 27.3;" xml:space="preserve">
<style type="text/css">
	.st0{fill:#FFFFFF;}
</style>
<g>
	<path class="st0" d="M25.1,0H2.3C1,0,0,1,0,2.3v22.8c0,1.3,1,2.3,2.3,2.3h22.9c1.3,0,2.3-1,2.3-2.3V2.3C27.4,1,26.4,0,25.1,0z
		 M26.4,25.1c0,0.7-0.6,1.3-1.3,1.3H2.3c-0.7,0-1.3-0.6-1.3-1.3V2.3C1,1.6,1.6,1,2.3,1h22.9c0.7,0,1.3,0.6,1.3,1.3V25.1z"/>
	<path class="st0" d="M21.3,6.9c-0.7,0-1.3,0.6-1.3,1.3c0,0.3,0.1,0.5,0.3,0.8l-5.1,8.6L11.6,14c0.1-0.1,0.1-0.3,0.1-0.5
		c0-0.7-0.6-1.3-1.3-1.3S9,12.8,9,13.6c0,0.2,0.1,0.5,0.2,0.7l-3.2,5c-0.1,0-0.1,0-0.2,0c-0.7,0-1.3,0.6-1.3,1.3s0.6,1.3,1.3,1.3
		c0.7,0,1.3-0.6,1.3-1.3c0-0.3-0.1-0.5-0.3-0.8l3.1-4.9c0.1,0,0.2,0.1,0.3,0.1c0.2,0,0.4-0.1,0.6-0.1l4.4,4.4l5.8-9.6
		c0.1,0,0.1,0,0.2,0c0.7,0,1.3-0.6,1.3-1.3C22.7,7.4,22.1,6.9,21.3,6.9z"/>
</g>
</svg>
