<?xml version="1.0" encoding="utf-8"?>
<!-- Generator: Adobe Illustrator 22.1.0, SVG Export Plug-In . SVG Version: 6.00 Build 0)  -->
<svg version="1.1" id="Layer_2" xmlns="http://www.w3.org/2000/svg" xmlns:xlink="http://www.w3.org/1999/xlink" x="0px" y="0px"
	 viewBox="0 0 21.5 21.5" style="enable-background:new 0 0 21.5 21.5;" xml:space="preserve">
<style type="text/css">
	.st0{fill:#f1f1f1;}
</style>
<g>
	<polygon class="st0" points="21.4,20.2 0.1,20.2 0.1,12.1 1.1,12.1 1.1,19.2 20.4,19.2 20.4,12.1 21.4,12.1 	"/>
	<polygon class="st0" points="5,8.7 7.9,5.2 10.7,1.8 13.6,5.2 16.5,8.7 13.2,8.7 13.2,16.6 8.3,16.6 8.3,8.7 	"/>
</g>
</svg>
