<?xml version="1.0" encoding="utf-8"?>
<!-- Generator: Adobe Illustrator 22.1.0, SVG Export Plug-In . SVG Version: 6.00 Build 0)  -->
<svg version="1.1" id="Layer_3" xmlns="http://www.w3.org/2000/svg" xmlns:xlink="http://www.w3.org/1999/xlink" x="0px" y="0px"
	 viewBox="0 0 28.7 27.6" style="enable-background:new 0 0 28.7 27.6;" xml:space="preserve">
<style type="text/css">
	.st0{fill:#FFFFFF;}
</style>
<g>
	<path class="st0" d="M17.4,0.3H3.3v26.5h20.5V5.7L17.4,0.3z M22.9,25.9H4.2V1.3h12.9l5.8,4.9V25.9z"/>
	<rect x="9.2" y="11.7" class="st0" width="7.9" height="0.9"/>
	<rect x="9.2" y="15.1" class="st0" width="7.9" height="0.9"/>
	<path class="st0" d="M6.5,14.1c0,3.6,2.9,6.5,6.5,6.5c1.2,0,2.3-0.3,3.2-0.9l3.6,4.5l1.4-1.1l-3.6-4.5c1.1-1.2,1.8-2.7,1.8-4.5
		c0-3.6-2.9-6.5-6.5-6.5C9.4,7.7,6.5,10.6,6.5,14.1z M18.6,14.1c0,3.1-2.5,5.6-5.6,5.6s-5.6-2.5-5.6-5.6c0-3.1,2.5-5.6,5.6-5.6
		S18.6,11.1,18.6,14.1z"/>
</g>
</svg>
