<?xml version="1.0" encoding="utf-8"?>
<!-- Generator: Adobe Illustrator 22.1.0, SVG Export Plug-In . SVG Version: 6.00 Build 0)  -->
<svg version="1.1" xmlns="http://www.w3.org/2000/svg" xmlns:xlink="http://www.w3.org/1999/xlink" x="0px" y="0px"
	 viewBox="0 0 93.7 93.7" style="enable-background:new 0 0 93.7 93.7;" xml:space="preserve">
<style type="text/css">
	.st0{fill:#FFFFFF;}
</style>
<g id="Layer_2">
	<circle class="st0" cx="46.8" cy="46.8" r="46.5"/>
</g>
<g id="Layer_1">
	<path d="M46.8,93.7C21,93.7,0,72.7,0,46.8C0,21,21,0,46.8,0c25.8,0,46.8,21,46.8,46.8C93.7,72.7,72.7,93.7,46.8,93.7z M46.8,0.7
		C21.4,0.7,0.7,21.4,0.7,46.8S21.4,93,46.8,93C72.3,93,93,72.3,93,46.8S72.3,0.7,46.8,0.7z"/>
</g>
<g id="Layer_3">
	<g>
		<path d="M69.4,46.9c0-11.8-9.4-21.5-21.1-22v-6.6c3.1-0.5,5.5-3.1,5.5-6.3c0-3.5-2.9-6.4-6.4-6.4C43.9,5.6,41,8.4,41,12
			c0,3.2,2.4,5.9,5.5,6.3v6.6c-11.7,0.5-21.1,10.2-21.1,22c0,11.8,9.4,21.5,21.1,22v6.6c-3.1,0.5-5.5,3.1-5.5,6.3
			c0,3.5,2.9,6.4,6.4,6.4c3.5,0,6.4-2.9,6.4-6.4c0-3.2-2.4-5.9-5.5-6.3v-6.6C60.1,68.4,69.4,58.7,69.4,46.9z M42.9,12
			c0-2.5,2-4.5,4.5-4.5S52,9.5,52,12c0,2.2-1.5,4-3.6,4.4v-4.6h-1.9v4.6C44.4,16,42.9,14.2,42.9,12z M27.3,46.9
			c0-11.1,9-20.1,20.1-20.1s20.1,9,20.1,20.1c0,11.1-9,20.1-20.1,20.1S27.3,58,27.3,46.9z M52,81.8c0,2.5-2,4.5-4.5,4.5
			s-4.5-2-4.5-4.5c0-2.2,1.5-4,3.6-4.4V82h1.9v-4.6C50.4,77.8,52,79.6,52,81.8z"/>
		<polygon points="38.7,39.3 34.8,39.3 34.8,54.4 45.7,54.4 45.7,51.5 38.7,51.5 		"/>
		<path d="M55.3,54.7c1.1,0,2.2-0.1,3.3-0.4c1.1-0.3,2-0.5,2.7-0.8v-7.4h-6.9v2.8h3v2.9c-0.1,0-0.3,0-0.5,0c-0.2,0-0.3,0-0.5,0
			c-1.7,0-3-0.4-3.9-1.3c-0.9-0.9-1.3-2.2-1.3-3.8c0-0.8,0.1-1.5,0.4-2.2c0.2-0.6,0.6-1.1,1-1.5c0.4-0.4,0.9-0.7,1.5-0.9
			s1.2-0.3,1.9-0.3c0.6,0,1.1,0.1,1.7,0.2c0.5,0.2,1,0.3,1.4,0.6c0.3,0.2,0.7,0.4,1,0.7s0.6,0.5,0.8,0.6h0.4v-3.5
			c-1.1-0.5-2.1-0.9-3-1.1c-0.9-0.2-1.8-0.3-2.8-0.3c-2.6,0-4.6,0.7-6.1,2.1c-1.5,1.4-2.2,3.3-2.2,5.6c0,2.4,0.7,4.4,2.2,5.8
			C50.7,54,52.7,54.7,55.3,54.7z"/>
	</g>
</g>
</svg>
