<?xml version="1.0" encoding="utf-8"?>
<!-- Generator: Adobe Illustrator 22.1.0, SVG Export Plug-In . SVG Version: 6.00 Build 0)  -->
<svg version="1.1" id="Layer_1" xmlns="http://www.w3.org/2000/svg" xmlns:xlink="http://www.w3.org/1999/xlink" x="0px" y="0px"
	 viewBox="0 0 46.8 46.8" style="enable-background:new 0 0 46.8 46.8;" xml:space="preserve">
<style type="text/css">
	.st0{fill:#FFFFFF;}
</style>
<circle class="st0" cx="23.4" cy="23.4" r="23.4"/>
<path d="M23.4,46.8C10.5,46.8,0,36.3,0,23.4S10.5,0,23.4,0s23.4,10.5,23.4,23.4S36.3,46.8,23.4,46.8z M23.4,0.3
	C10.7,0.3,0.3,10.7,0.3,23.4s10.4,23.1,23.1,23.1s23.1-10.4,23.1-23.1S36.2,0.3,23.4,0.3z"/>
<g>
	<g>
		<polygon points="20.9,27 15.5,27 15.5,25.9 20.3,25.9 		"/>
		<rect x="15.5" y="13.4" width="15" height="1.1"/>
		<polygon points="15.5,19.7 24.3,19.7 22.2,20.8 15.5,20.8 		"/>
		<polygon points="30.5,19.7 30.5,20.4 30.2,20.8 25.3,20.8 24.7,19.7 		"/>
	</g>
	<path d="M33.8,27.5v9c0,0.8-0.7,1.4-1.5,1.4H13.4c-0.8,0-1.5-0.6-1.5-1.4V10.8c0-0.8,0.7-1.4,1.5-1.4h18.9c0.8,0,1.5,0.6,1.5,1.4
		V16l1.2-1.5v-3.7c0-1.4-1.2-2.6-2.7-2.6H13.4c-1.5,0-2.7,1.1-2.7,2.6v25.7c0,1.4,1.2,2.6,2.7,2.6h18.9c1.5,0,2.7-1.1,2.7-2.6V25.9
		L33.8,27.5z"/>
	<polygon points="27.1,31.6 22.5,23.9 23.5,23.3 27.2,29.5 38.6,14.5 39.6,15.1 	"/>
</g>
<g>
	<polygon points="24.2,32.1 15.5,32.1 15.5,33.2 24.9,33.2 	"/>
	<polygon points="29.6,33.2 30.5,33.2 30.5,32.1 30.4,32.1 	"/>
</g>
</svg>
