<?xml version="1.0" encoding="utf-8"?>
<!-- Generator: Adobe Illustrator 23.0.3, SVG Export Plug-In . SVG Version: 6.00 Build 0)  -->
<svg version="1.1" xmlns="http://www.w3.org/2000/svg" xmlns:xlink="http://www.w3.org/1999/xlink" x="0px" y="0px"
	 viewBox="0 0 21 21" style="enable-background:new 0 0 21 21;" xml:space="preserve">
<style type="text/css">
	.st0{fill:#FFFFFF;}
</style>
<g id="Layer_1">
</g>
<g id="Ic_Truck_5">
</g>
<g id="Isolation_Mode">
	<path class="st0" d="M11.3,17.3V14c2.9-0.4,5.2-2.9,5.2-5.9c0-3.3-2.7-5.9-5.9-5.9c-3.3,0-5.9,2.7-5.9,5.9c0,3,2.3,5.5,5.2,5.9v3.4
		H0v1.5h21v-1.5H11.3z M6.1,8.1c0-2.5,2-4.4,4.4-4.4c2.5,0,4.4,2,4.4,4.4c0,2.5-2,4.4-4.4,4.4C8,12.5,6.1,10.6,6.1,8.1z"/>
</g>
</svg>
