<?xml version="1.0" encoding="utf-8"?>
<!-- Generator: Adobe Illustrator 23.0.1, SVG Export Plug-In . SVG Version: 6.00 Build 0)  -->
<svg version="1.1" xmlns="http://www.w3.org/2000/svg" xmlns:xlink="http://www.w3.org/1999/xlink" x="0px" y="0px"
	 viewBox="0 0 15 15" style="enable-background:new 0 0 15 15;" xml:space="preserve">
<style type="text/css">
	.st0{fill:#333333;}
	.st1{fill:#FFFFFF;}
</style>
<g id="Layer_1">
</g>
<g id="Layer_44">
	<g>
		<circle class="st0" cx="7.5" cy="7.5" r="7.5"/>
		<polygon class="st1" points="11.1,10.2 10.5,8.8 9.8,9.6 7.1,7.5 9.8,5.4 10.5,6.2 11,4.8 11.6,3.5 10.1,3.7 8.7,3.9 9.4,4.8 
			6.4,7.1 2.6,7.1 2.6,7.8 6.4,7.8 9.4,10.2 8.7,11.1 10.1,11.3 11.6,11.5 		"/>
	</g>
</g>
</svg>
