<?xml version="1.0" encoding="utf-8"?>
<!-- Generator: Adobe Illustrator 22.0.1, SVG Export Plug-In . SVG Version: 6.00 Build 0)  -->
<svg version="1.1" xmlns="http://www.w3.org/2000/svg" xmlns:xlink="http://www.w3.org/1999/xlink" x="0px" y="0px"
	 viewBox="0 0 23.4 23.4" style="enable-background:new 0 0 23.4 23.4;" xml:space="preserve">
<style type="text/css">
	.st0{fill:#FFFFFF;}
</style>
<g id="Layer_1">
	<circle class="st0" cx="11.7" cy="11.7" r="11.6"/>
</g>
<g id="Layer_2">
	<path d="M11.7,23.4C5.3,23.4,0,18.2,0,11.7C0,5.3,5.3,0,11.7,0c6.5,0,11.7,5.3,11.7,11.7C23.4,18.2,18.2,23.4,11.7,23.4z M11.7,0.2
		C5.3,0.2,0.2,5.3,0.2,11.7s5.2,11.5,11.5,11.5c6.4,0,11.5-5.2,11.5-11.5S18.1,0.2,11.7,0.2z"/>
</g>
<g id="Layer_3">
	<g>
		<path d="M10.2,15.4c-0.2,0-0.4,0.2-0.4,0.4v1.3h-6c-0.2,0-0.4,0.2-0.4,0.4c0,0.2,0.2,0.4,0.4,0.4h6v1.2c0,0.2,0.2,0.4,0.4,0.4
			c0.2,0,0.4-0.2,0.4-0.4v-3.3C10.6,15.6,10.4,15.4,10.2,15.4z"/>
		<path d="M19.6,17.1h-5.9v-1.3c0-0.2-0.2-0.4-0.4-0.4s-0.4,0.2-0.4,0.4v3.3c0,0.2,0.2,0.4,0.4,0.4c0.2,0,0.4-0.2,0.4-0.4v-1.2h5.9
			c0.2,0,0.4-0.2,0.4-0.4C20,17.3,19.8,17.1,19.6,17.1z"/>
		<path d="M16.9,7.7c0-2.8-2.3-5.1-5.1-5.1c-2.8,0-5.1,2.3-5.1,5.1c0,2.7,2.1,4.8,4.7,5.1V19c0,0.2,0.2,0.4,0.4,0.4
			c0.2,0,0.4-0.2,0.4-0.4v-6.2C14.8,12.6,16.9,10.4,16.9,7.7z M7.7,7.7c0-2.3,1.8-4.1,4.1-4.1c2.3,0,4.1,1.8,4.1,4.1
			c0,2.3-1.8,4.1-4.1,4.1C9.5,11.8,7.7,10,7.7,7.7z"/>
	</g>
</g>
</svg>
