<?xml version="1.0" encoding="utf-8"?>
<!-- Generator: Adobe Illustrator 22.1.0, SVG Export Plug-In . SVG Version: 6.00 Build 0)  -->
<svg version="1.1" xmlns="http://www.w3.org/2000/svg" xmlns:xlink="http://www.w3.org/1999/xlink" x="0px" y="0px"
	 viewBox="0 0 58.5 58.5" style="enable-background:new 0 0 58.5 58.5;" xml:space="preserve">
<style type="text/css">
	.st0{fill:#FFFFFF;}
</style>
<g id="Layer_2">
	<circle class="st0" cx="29.3" cy="29.3" r="29.1"/>
</g>
<g id="Layer_1">
	<path d="M29.3,58.6C13.1,58.6,0,45.4,0,29.3C0,13.1,13.1,0,29.3,0c16.2,0,29.3,13.2,29.3,29.3C58.6,45.4,45.4,58.6,29.3,58.6z
		 M29.3,0.4c-15.9,0-28.9,13-28.9,28.9s13,28.9,28.9,28.9c15.9,0,28.9-13,28.9-28.9S45.2,0.4,29.3,0.4z"/>
</g>
<g id="Layer_4">
	<g>
		<path d="M48.3,14.2c-0.6-2.3-4.6-3-6.3-3.1c-4.4-0.5-9.7,0.5-10.9,3v28.5v0.2c0.9,2.7,5.2,3.7,8.4,3.7h0.1c3.7,0,7.7-1.1,8.7-3.7
			v-0.1V14.2z M31.9,41.9V15.2h15.3v26.7H31.9z M41.8,12.1c2.9,0.3,4.9,1.1,5.3,2.1h-15C33.5,12.4,38,11.7,41.8,12.1z M39.4,45.6
			c-3,0-6.4-0.8-7.4-2.7h15C46.1,44.5,43.1,45.6,39.4,45.6z"/>
		<g id="Layer_3_1_">
			<g>
				<path d="M18.3,22.5c1.9,0,3.4-1.6,3.4-3.4s-1.6-3.4-3.4-3.4s-3.4,1.6-3.4,3.4C14.8,21.1,16.4,22.5,18.3,22.5z M16.9,21.2
					l1.4-1.6l1.6,1.4c-0.5,0.3-1,0.5-1.6,0.5C17.8,21.7,17.3,21.6,16.9,21.2z M20.8,19.2c0,0.5-0.1,1-0.4,1.4l-1.6-1.4l1.4-1.5
					C20.6,18,20.8,18.6,20.8,19.2z M19.7,17l-1.4,1.5l-1.5-1.4c0.5-0.3,1-0.5,1.5-0.5C18.8,16.6,19.3,16.8,19.7,17z M16.1,17.7
					l1.5,1.4l-1.4,1.6c-0.3-0.5-0.5-1-0.5-1.5C15.8,18.6,15.9,18.1,16.1,17.7z"/>
				<path d="M26.7,16.8h-5.3l0.2,0.3c0.9,1.4,0.7,3.1-0.1,3.9l-0.3,0.3h5.4V16.8z M26.2,21.1h-4.2c0.6-1,0.8-2.3,0.1-3.7h4.1
					L26.2,21.1z"/>
				<path d="M9.6,25.1h2.5c0.6,0,1.1-0.5,1.1-1.1s-0.5-1.1-1.1-1.1H9.6c-0.6,0-1.1,0.5-1.1,1.1S8.9,25.1,9.6,25.1z M9.6,23.5h2.5
					c0.4,0,0.7,0.3,0.7,0.7c0,0.4-0.3,0.7-0.7,0.7H9.6c-0.4,0-0.7-0.3-0.7-0.7C8.9,23.7,9.2,23.5,9.6,23.5z"/>
				<path d="M12.3,25.3H9.3v1.2h3.1V25.3z M11.9,26.1H9.7v-0.3h2.2V26.1z"/>
				<path d="M10,22.7h2.2c0.3,0,0.7,0.2,0.9,0.5l0.3,0.5l0.1-0.5c0.1-0.5,0.9-1.3,1.6-1.5l0.3-0.1l-0.3-0.3c-0.5-0.6-0.7-1.3-0.8-2
					l0,0c0-0.3,0-0.7,0.1-1l0.1-0.4l-0.4,0.1c-2.1,0.6-3.7,2.1-4.7,4.4l-0.1,0.3h0.5C10,22.7,10,22.7,10,22.7z M14.1,18.6
					c-0.1,0.3-0.1,0.5-0.1,0.7c0,0.7,0.3,1.4,0.7,2c-0.6,0.3-1.2,0.8-1.5,1.4c-0.3-0.3-0.7-0.4-1-0.4h-2.1
					C11.1,20.5,12.4,19.2,14.1,18.6z"/>
				<path d="M18.3,30.7c1.9,0,3.4-1.6,3.4-3.4s-1.6-3.4-3.4-3.4s-3.4,1.6-3.4,3.4C14.8,29.2,16.4,30.7,18.3,30.7z M16.9,29.4
					l1.4-1.6l1.6,1.4c-0.5,0.3-1,0.5-1.6,0.5C17.8,29.9,17.3,29.7,16.9,29.4z M20.8,27.3c0,0.5-0.1,1-0.4,1.4l-1.6-1.4l1.4-1.5
					C20.6,26.2,20.8,26.7,20.8,27.3z M19.7,25.1l-1.4,1.5l-1.5-1.4c0.5-0.3,1-0.5,1.5-0.5C18.8,24.8,19.3,24.9,19.7,25.1z
					 M16.1,25.9l1.5,1.4l-1.4,1.6c-0.3-0.5-0.5-1-0.5-1.5C15.8,26.8,15.9,26.3,16.1,25.9z"/>
				<path d="M26.7,25h-5.3l0.2,0.3c0.9,1.4,0.7,3.1-0.1,3.9l-0.3,0.4h5.4L26.7,25L26.7,25z M26.2,29.2h-4.2c0.6-1,0.8-2.3,0.1-3.7
					h4.1L26.2,29.2z"/>
				<path d="M9.6,33.3h2.5c0.6,0,1.1-0.5,1.1-1.1c0-0.6-0.5-1.1-1.1-1.1H9.6c-0.6,0-1.1,0.5-1.1,1.1C8.5,32.8,8.9,33.3,9.6,33.3z
					 M9.6,31.6h2.5c0.4,0,0.7,0.3,0.7,0.7c0,0.4-0.3,0.7-0.7,0.7H9.6c-0.4,0-0.7-0.3-0.7-0.7C8.9,31.8,9.2,31.6,9.6,31.6z"/>
				<path d="M9.3,34.7h3.1v-1.2H9.3V34.7z M9.7,33.9h2.2v0.3H9.7V33.9z"/>
				<path d="M10,30.9h2.2c0.3,0,0.7,0.2,0.9,0.5l0.3,0.5l0.1-0.5c0.1-0.5,0.9-1.3,1.6-1.5l0.3-0.1l-0.3-0.3c-0.5-0.6-0.7-1.3-0.8-2
					l0,0c0-0.3,0-0.7,0.1-1l0.1-0.4l-0.4,0.1c-2.1,0.6-3.7,2.1-4.7,4.4l-0.1,0.3h0.5C10,30.9,10,30.9,10,30.9z M14.1,26.7
					c-0.1,0.3-0.1,0.5-0.1,0.7c0,0.7,0.3,1.4,0.7,2c-0.6,0.3-1.2,0.8-1.5,1.4c-0.3-0.3-0.7-0.4-1-0.4h-2.1
					C11.1,28.6,12.4,27.3,14.1,26.7z"/>
				<path d="M18.3,38.9c1.9,0,3.4-1.6,3.4-3.4c0-1.9-1.6-3.4-3.4-3.4s-3.4,1.6-3.4,3.4C14.8,37.4,16.4,38.9,18.3,38.9z M16.9,37.6
					l1.4-1.6l1.6,1.4c-0.5,0.3-1,0.5-1.6,0.5C17.8,38,17.3,37.9,16.9,37.6z M20.8,35.5c0,0.5-0.1,1-0.4,1.4l-1.6-1.4l1.4-1.5
					C20.6,34.3,20.8,34.9,20.8,35.5z M19.7,33.3l-1.4,1.5l-1.5-1.4c0.5-0.3,1-0.5,1.5-0.5S19.3,33,19.7,33.3z M16.1,34.1l1.5,1.4
					L16.2,37c-0.3-0.5-0.5-1-0.5-1.5C15.8,34.9,15.9,34.4,16.1,34.1z"/>
				<path d="M26.7,33.1h-5.3l0.2,0.3c0.9,1.4,0.7,3.1-0.1,3.9l-0.3,0.3h5.4V33.1z M26.2,37.3h-4.2c0.6-1,0.8-2.3,0.1-3.7h4.1
					L26.2,37.3z"/>
				<path d="M12.1,39.3H9.6c-0.6,0-1.1,0.5-1.1,1.1s0.5,1.1,1.1,1.1h2.5c0.6,0,1.1-0.5,1.1-1.1S12.6,39.3,12.1,39.3z M12.1,41H9.6
					c-0.4,0-0.7-0.3-0.7-0.7c0-0.4,0.3-0.7,0.7-0.7h2.5c0.4,0,0.7,0.3,0.7,0.7C12.7,40.8,12.4,41,12.1,41z"/>
				<path d="M9.3,42.8h3.1v-1.2H9.3V42.8z M9.7,42.1h2.2v0.3H9.7V42.1z"/>
				<path d="M15.2,37.6c-0.5-0.6-0.7-1.2-0.8-2c0-0.3,0-0.7,0.1-1l0.1-0.4l-0.4,0.1c-2.1,0.6-3.7,2.1-4.7,4.4l-0.1,0.3h0.5H10h2.2
					c0.3,0,0.7,0.2,0.9,0.5l0.3,0.5l0.1-0.5c0.1-0.5,0.8-1.3,1.6-1.5l0.3-0.1L15.2,37.6z M13.3,39c-0.3-0.3-0.7-0.4-1-0.4h-2.1
					c0.9-1.8,2.2-3.1,4-3.7c-0.1,0.3-0.1,0.5-0.1,0.7c0,0.7,0.3,1.4,0.7,2C14.1,37.9,13.5,38.5,13.3,39z"/>
				<path d="M27.5,14.6c-0.8,0-1.6,0.7-1.6,1.6v0.4H27v5.2h-1.1v2.9H27v5.2h-1.1v2.9h1V38h-1v1.7l-8.8,1.4l-1.8,1v0.6H29v-0.1v-1.4
					v-25C29,15.3,28.3,14.6,27.5,14.6z"/>
			</g>
		</g>
	</g>
</g>
</svg>
