<?xml version="1.0" encoding="utf-8"?>
<!-- Generator: Adobe Illustrator 24.0.1, SVG Export Plug-In . SVG Version: 6.00 Build 0)  -->
<svg version="1.1" id="Layer_1" xmlns="http://www.w3.org/2000/svg" xmlns:xlink="http://www.w3.org/1999/xlink" x="0px" y="0px"
	 viewBox="0 0 21 21" style="enable-background:new 0 0 21 21;" xml:space="preserve">
<style type="text/css">
	.st0{fill:#D7606D;}
</style>
<path class="st0" d="M10.5,13.5c-1.66-0.02-3.01,1.31-3.03,2.96s1.31,3.01,2.96,3.03c1.66,0.02,3.01-1.31,3.03-2.96
	c0-0.01,0-0.02,0-0.03C13.47,14.86,12.14,13.52,10.5,13.5z M4.19,10.14l2.11,2.12c2.3-2.32,6.05-2.34,8.37-0.04
	c0.01,0.01,0.02,0.02,0.04,0.04l2.1-2.12c-3.43-3.48-9.03-3.52-12.51-0.09C4.25,10.08,4.22,10.11,4.19,10.14z M0,5.89l2.1,2.17
	c4.56-4.64,12.02-4.7,16.66-0.14c0.05,0.05,0.09,0.09,0.14,0.14L21,5.89C15.27,0.09,5.93,0.03,0.13,5.76C0.09,5.8,0.04,5.85,0,5.89
	L0,5.89z"/>
</svg>
