<?xml version="1.0" encoding="utf-8"?>
<!-- Generator: Adobe Illustrator 22.0.1, SVG Export Plug-In . SVG Version: 6.00 Build 0)  -->
<svg version="1.1" xmlns="http://www.w3.org/2000/svg" xmlns:xlink="http://www.w3.org/1999/xlink" x="0px" y="0px"
	 viewBox="0 0 23.4 23.4" style="enable-background:new 0 0 23.4 23.4;" xml:space="preserve">
<style type="text/css">
	.st0{fill:#FFFFFF;}
</style>
<g id="Layer_1">
	<circle class="st0" cx="11.7" cy="11.7" r="11.6"/>
</g>
<g id="Layer_2">
	<path d="M11.7,23.4C5.3,23.4,0,18.2,0,11.7C0,5.3,5.3,0,11.7,0c6.5,0,11.7,5.3,11.7,11.7C23.4,18.2,18.2,23.4,11.7,23.4z M11.7,0.2
		C5.3,0.2,0.2,5.3,0.2,11.7s5.2,11.5,11.5,11.5c6.4,0,11.5-5.2,11.5-11.5S18.1,0.2,11.7,0.2z"/>
</g>
<g id="Layer_3">
	<path d="M11.7,5c-1.5,0-8.9,0.1-8.9,1.8v7.4c0,0.4,0.3,0.9,2.9,1.3c0.7,0.1,1.5,0.2,2.3,0.2v4.4c0,0.7,0.5,1.2,1.2,1.2h5
		c0.7,0,1.2-0.5,1.2-1.2v-4.4c2.5-0.2,5.3-0.6,5.3-1.5V6.9C20.6,5.1,13.2,5,11.7,5z M14.9,20.1c0,0.4-0.3,0.7-0.7,0.7h-5
		c-0.4,0-0.7-0.3-0.7-0.7v-4.4c1,0.1,2.1,0.1,3.2,0.1c0.5,0,1.8,0,3.2-0.1V20.1z M20.2,14.2c0,0.5-3,1.2-8.5,1.2
		c-5.6,0-8.5-0.7-8.5-1.2V6.9c0-0.7,3.3-1.4,8.5-1.4c2.3,0,4.4,0.1,6,0.4c2.4,0.4,2.6,0.9,2.6,1V14.2z"/>
</g>
</svg>
