<?xml version="1.0" encoding="utf-8"?>
<!-- Generator: Adobe Illustrator 22.1.0, SVG Export Plug-In . SVG Version: 6.00 Build 0)  -->
<svg version="1.1" xmlns="http://www.w3.org/2000/svg" xmlns:xlink="http://www.w3.org/1999/xlink" x="0px" y="0px"
	 viewBox="0 0 70.3 70.3" style="enable-background:new 0 0 70.3 70.3;" xml:space="preserve">
<style type="text/css">
	.st0{fill:#FFFFFF;}
</style>
<g id="Layer_2">
	<circle class="st0" cx="35.1" cy="35.1" r="34.8"/>
</g>
<g id="Layer_1">
	<path d="M35.1,70.3C15.8,70.3,0,54.5,0,35.1S15.8,0,35.1,0s35.1,15.8,35.1,35.1S54.5,70.3,35.1,70.3z M35.1,0.6
		C16.1,0.6,0.6,16.1,0.6,35.1c0,19.1,15.5,34.6,34.6,34.6c19.1,0,34.6-15.5,34.6-34.6C69.7,16.1,54.2,0.6,35.1,0.6z"/>
</g>
<g id="Layer_3">
	<g>
		<path d="M62.1,45.9H46.7V35.3H36.2v-4.7c6.6-0.5,11.8-5.9,11.8-12.6c0-7-5.7-12.7-12.7-12.7S22.6,11,22.6,18
			c0,6.6,5.1,12,11.5,12.6v4.7H23.7v10.6H8.2c-0.6,0-1,0.5-1,1c0,0.6,0.5,1,1,1h15.5v10.4h23V48h15.4c0.6,0,1-0.5,1-1
			C63.1,46.4,62.7,45.9,62.1,45.9z M24.7,18c0-5.9,4.8-10.6,10.6-10.6S45.9,12.2,45.9,18c0,5.9-4.8,10.6-10.6,10.6
			S24.7,23.9,24.7,18z M44.7,56.3H25.7V37.4h18.9V56.3z"/>
		<polygon points="33.8,51.8 36.3,51.8 36.3,44 39.3,44 39.3,42.1 30.8,42.1 30.8,44 33.8,44 		"/>
	</g>
</g>
</svg>
