<?xml version="1.0" encoding="utf-8"?>
<!-- Generator: Adobe Illustrator 23.0.2, SVG Export Plug-In . SVG Version: 6.00 Build 0)  -->
<svg version="1.1" xmlns="http://www.w3.org/2000/svg" xmlns:xlink="http://www.w3.org/1999/xlink" x="0px" y="0px"
	 viewBox="0 0 21 21" style="enable-background:new 0 0 21 21;" xml:space="preserve">
<style type="text/css">
	.WaterInjectionWell{fill:#4E95D0;}
</style>
<g id="Layer_1">
</g>
<g id="Circled_Ics">
	<path class="WaterInjectionWell" d="M15.4,10.1c0-0.1,0-0.2,0-0.3c0,0,0,0,0,0c0-0.1,0-0.2-0.1-0.3c0-0.1,0-0.1-0.1-0.2c0,0,0-0.1,0-0.1
		c0-0.1,0-0.1-0.1-0.2C15,8.9,15,8.8,14.9,8.6c0,0,0-0.1-0.1-0.1c0-0.1-0.1-0.1-0.1-0.2c-0.1-0.1-0.1-0.2-0.2-0.3
		c-0.1-0.1-0.1-0.2-0.2-0.3L21,1.1L19.9,0l-6.1,6.1l-0.5,0.5c-0.1-0.1-0.2-0.1-0.3-0.2c-0.1-0.1-0.2-0.1-0.3-0.2c0,0,0,0,0,0
		c-0.1,0-0.2-0.1-0.2-0.1C12.4,6.1,12.3,6,12.1,6c-0.1,0-0.2-0.1-0.3-0.1c0,0,0,0,0,0c-0.1,0-0.2-0.1-0.2-0.1c0,0-0.1,0-0.1,0
		c-0.1,0-0.2,0-0.2-0.1c-0.1,0-0.2,0-0.3-0.1c0,0,0,0,0,0c-0.3,0-0.5-0.1-0.8-0.1c-0.3,0-0.5,0-0.8,0.1c0,0,0,0,0,0
		c-0.1,0-0.2,0-0.3,0.1c-0.1,0-0.2,0.1-0.4,0.1c-0.1,0-0.2,0.1-0.3,0.1C8.2,5.9,8.1,6,8,6C7.9,6,7.8,6.1,7.7,6.1
		C7.4,6.3,7.2,6.4,6.9,6.6l0,0C6.5,6.9,6.1,7.3,5.8,7.7l0,0C5.5,8.1,5.3,8.5,5.1,8.9C5.1,9.1,5,9.3,4.9,9.5
		c-0.1,0.2-0.1,0.4-0.1,0.7h0c0,0.3-0.1,0.5-0.1,0.8c0,0.3,0,0.5,0.1,0.8h0c0,0.2,0.1,0.4,0.1,0.7c0,0.1,0,0.2,0.1,0.2
		c0,0.1,0,0.1,0.1,0.2c0.2,0.5,0.4,0.9,0.7,1.3l0,0l-0.5,0.5l-2.2,2.2l-1.2-1.2l-0.7,3L0,21l2.4-1.3l3-0.6l-1.2-1.2l2.7-2.7
		c0.3,0.2,0.5,0.4,0.8,0.5c0.1,0.1,0.2,0.1,0.3,0.1c0.1,0,0.2,0.1,0.3,0.1c0.1,0,0.2,0.1,0.3,0.1c0.1,0,0.2,0.1,0.3,0.1
		c0.1,0,0.2,0,0.3,0.1c0,0,0,0,0,0c0.3,0,0.5,0.1,0.8,0.1c0.3,0,0.5,0,0.8-0.1c0,0,0,0,0,0c0.1,0,0.2,0,0.3-0.1
		c0.1,0,0.2-0.1,0.3-0.1c0.1,0,0.2-0.1,0.3-0.1c0,0,0,0,0,0c0.1,0,0.2-0.1,0.3-0.1c0.1,0,0.2-0.1,0.3-0.2c0.1,0,0.2-0.1,0.2-0.1
		c0,0,0,0,0,0c0.1,0,0.2-0.1,0.3-0.2c0.1-0.1,0.2-0.1,0.3-0.2c0.4-0.3,0.8-0.7,1.1-1.1c0.1-0.1,0.1-0.2,0.2-0.3
		c0.1-0.1,0.1-0.2,0.2-0.2c0,0,0,0,0-0.1c0-0.1,0.1-0.1,0.1-0.2c0.1-0.2,0.2-0.4,0.3-0.6c0,0,0-0.1,0-0.1c0-0.1,0-0.1,0.1-0.2
		c0.1-0.2,0.1-0.4,0.1-0.7c0-0.3,0.1-0.5,0.1-0.8C15.4,10.7,15.4,10.4,15.4,10.1C15.4,10.1,15.4,10.1,15.4,10.1z M6.8,13.1
		c-1-1.5-0.8-3.6,0.5-4.9c1.3-1.3,3.4-1.5,4.9-0.5L6.8,13.1z M12.8,13.7c-1.3,1.3-3.4,1.5-4.9,0.5l5.4-5.4
		C14.3,10.3,14.1,12.3,12.8,13.7z"/>
</g>
</svg>
