<?xml version="1.0" encoding="utf-8"?>
<!-- Generator: Adobe Illustrator 23.0.3, SVG Export Plug-In . SVG Version: 6.00 Build 0)  -->
<svg version="1.1" xmlns="http://www.w3.org/2000/svg" xmlns:xlink="http://www.w3.org/1999/xlink" x="0px" y="0px"
	 viewBox="0 0 10 10" style="enable-background:new 0 0 10 10;" xml:space="preserve">
<g id="Layer_1">
	<polygon points="0,1.2 0,8.8 10,8.8 10,2.9 5,2.9 3.7,1.2 	"/>
</g>
<g id="Isolation_Mode">
</g>
</svg>
