<?xml version="1.0" encoding="utf-8"?>
<!-- Generator: Adobe Illustrator 23.0.3, SVG Export Plug-In . SVG Version: 6.00 Build 0)  -->
<svg version="1.1" xmlns="http://www.w3.org/2000/svg" xmlns:xlink="http://www.w3.org/1999/xlink" x="0px" y="0px"
	 viewBox="0 0 10 10" style="enable-background:new 0 0 10 10;" xml:space="preserve">
<g id="Layer_1">
</g>
<g id="Isolation_Mode">
	<path d="M0,0v10h10V0H0z M3.3,8.9h-2V3.1h2V8.9z M6,8.4H4V1.1h2V8.4z M8.7,8.9h-2V4.1h2V8.9z"/>
</g>
</svg>
