<?xml version="1.0" encoding="utf-8"?>
<!-- Generator: Adobe Illustrator 22.0.1, SVG Export Plug-In . SVG Version: 6.00 Build 0)  -->
<svg version="1.1" xmlns="http://www.w3.org/2000/svg" xmlns:xlink="http://www.w3.org/1999/xlink" x="0px" y="0px"
	 viewBox="0 0 23.4 23.4" style="enable-background:new 0 0 23.4 23.4;" xml:space="preserve">
<style type="text/css">
	.st0{fill:#FFFFFF;}
</style>
<g id="Layer_1">
	<circle class="st0" cx="11.7" cy="11.7" r="11.6"/>
</g>
<g id="Layer_2">
	<path d="M11.7,23.4C5.3,23.4,0,18.2,0,11.7C0,5.3,5.3,0,11.7,0c6.5,0,11.7,5.3,11.7,11.7C23.4,18.2,18.2,23.4,11.7,23.4z M11.7,0.2
		C5.3,0.2,0.2,5.3,0.2,11.7s5.2,11.5,11.5,11.5c6.4,0,11.5-5.2,11.5-11.5S18.1,0.2,11.7,0.2z"/>
</g>
<g id="Layer_3">
	<path d="M20.8,15.7h-5.3v-3.5h-3.5v-1.7c2.2-0.2,4-2,4-4.3c0-2.4-1.9-4.3-4.3-4.3S7.4,3.9,7.4,6.3c0,2.2,1.7,4.1,3.9,4.3v1.7H7.9
		v3.5H2.6c-0.2,0-0.3,0.2-0.3,0.3s0.2,0.3,0.3,0.3h5.4v3.4h7.6v-3.4h5.3c0.2,0,0.3-0.2,0.3-0.3S21,15.7,20.8,15.7z M8.2,6.3
		c0-2,1.6-3.6,3.6-3.6c2,0,3.6,1.6,3.6,3.6c0,2-1.6,3.6-3.6,3.6C9.8,9.9,8.2,8.3,8.2,6.3z M15,19.4H8.4v-6.6h1v3.6H11l3,2.2v-4.9
		l-3,2.2H9.9v-3.1H15V19.4z M11.5,16.1l2-1.5v2.9L11.5,16.1z"/>
</g>
</svg>
