<?xml version="1.0" encoding="utf-8"?>
<!-- Generator: Adobe Illustrator 23.0.1, SVG Export Plug-In . SVG Version: 6.00 Build 0)  -->
<svg version="1.1" xmlns="http://www.w3.org/2000/svg" xmlns:xlink="http://www.w3.org/1999/xlink" x="0px" y="0px"
	 viewBox="0 0 21 21" style="enable-background:new 0 0 21 21;" xml:space="preserve">
<style type="text/css">
	.st0{fill:#FFFFFF;}
</style>
<g id="Layer_1">
</g>
<g id="Isolation_Mode">
	<g>
		<path class="st0" d="M9.5,15.2c0-1.1,0.2-1.9,0.5-2.6c0.3-0.7,0.9-1.4,1.7-2.2c0.8-0.8,1.4-1.4,1.8-1.9C13.8,8,14,7.5,14.2,7
			c0.2-0.5,0.2-1.1,0.2-1.9c0-1.4-0.4-2.4-1.1-3.2c-0.7-0.8-1.7-1.2-3-1.2C9,0.8,7.9,1.2,7.2,2C6.4,2.8,6,3.8,6,5.1H5.2
			c0-1.5,0.5-2.8,1.5-3.7C7.7,0.5,8.9,0,10.4,0c1.5,0,2.7,0.5,3.5,1.4c0.9,0.9,1.3,2.2,1.3,3.8c0,1.1-0.2,2-0.6,2.9
			c-0.4,0.8-1.2,1.8-2.5,2.9c-1.2,1-1.9,2.4-1.9,4.2H9.5z M9.1,20.2c0-0.2,0.1-0.4,0.2-0.6c0.2-0.2,0.3-0.2,0.6-0.2
			c0.2,0,0.4,0.1,0.6,0.2c0.2,0.2,0.2,0.3,0.2,0.6s-0.1,0.4-0.2,0.6c-0.2,0.2-0.3,0.2-0.6,0.2c-0.2,0-0.4-0.1-0.6-0.2
			S9.1,20.4,9.1,20.2z"/>
	</g>
</g>
</svg>
