<?xml version="1.0" encoding="utf-8"?>
<!-- Generator: Adobe Illustrator 23.0.1, SVG Export Plug-In . SVG Version: 6.00 Build 0)  -->
<svg version="1.1" xmlns="http://www.w3.org/2000/svg" xmlns:xlink="http://www.w3.org/1999/xlink" x="0px" y="0px"
	 viewBox="0 0 21 21" style="enable-background:new 0 0 21 21;" xml:space="preserve">
<style type="text/css">
	.st0{fill:#FFFFFF;}
</style>
<g id="Layer_1">
</g>
<g id="Layer_2">
	<path class="st0" d="M20.8,5.7c0-2.8-4.5-5-10.3-5c-5.8,0-10.3,2.2-10.3,5c0,0,0,0.1,0,0.1h0l0,9.2c0.4,3.7,5.2,5.2,9.9,5.2
		c0.2,0,0.5,0,0.7,0c4.7-0.2,9.8-1.9,9.9-5.3V5.9h0C20.8,5.8,20.8,5.8,20.8,5.7z M10.5,1.4c5.2,0,9.6,2,9.6,4.3s-4.4,4.3-9.6,4.3
		c-5.2,0-9.6-2-9.6-4.3S5.3,1.4,10.5,1.4z M20.1,15c-0.1,2.8-4.7,4.4-9.2,4.6c-4.5,0.2-9.5-1.2-9.9-4.6V7.6c1.5,1.9,5.2,3.2,9.6,3.2
		c4.4,0,8.1-1.3,9.6-3.2V15z"/>
</g>
</svg>
