<?xml version="1.0" encoding="utf-8"?>
<!-- Generator: Adobe Illustrator 22.1.0, SVG Export Plug-In . SVG Version: 6.00 Build 0)  -->
<svg version="1.1" id="Layer_1" xmlns="http://www.w3.org/2000/svg" xmlns:xlink="http://www.w3.org/1999/xlink" x="0px" y="0px"
	 viewBox="0 0 47 44.6" style="enable-background:new 0 0 47 44.6;" xml:space="preserve">
<style type="text/css">
	.st0{fill:#0394B5;}
</style>
<g>
	<rect y="20" class="st0" width="7.8" height="24.6"/>
	<rect x="13.1" y="3.1" class="st0" width="7.8" height="41.4"/>
	<rect x="26.1" y="14.6" class="st0" width="7.8" height="29.9"/>
	<rect x="39.2" class="st0" width="7.8" height="44.5"/>
</g>
</svg>
