<?xml version="1.0" encoding="utf-8"?>
<!-- Generator: Adobe Illustrator 22.1.0, SVG Export Plug-In . SVG Version: 6.00 Build 0)  -->
<svg version="1.1" id="Layer_1" xmlns="http://www.w3.org/2000/svg" xmlns:xlink="http://www.w3.org/1999/xlink" x="0px" y="0px"
	 viewBox="0 0 49.5 49.5" style="enable-background:new 0 0 49.5 49.5;" xml:space="preserve">
<style type="text/css">
	.st0{fill:#0394B5;}
</style>
<path class="st0" d="M49.5,1.2V0h-1.2h-47H0v1.2v47v1.2h1.2v0h47h1.2v-1.2L49.5,1.2L49.5,1.2z M15.7,31.3H2.5V18.2h13.2V31.3z
	 M15.7,15.7H2.5V2.5h13.2V15.7z M31.3,47H18.2V33.8h13.2V47z M31.3,15.7H18.2V2.5h13.2V15.7z M47,47H33.8V33.8H47V47z M47,31.3H33.8
	V18.2H47V31.3z"/>
</svg>
