<?xml version="1.0" encoding="utf-8"?>
<!-- Generator: Adobe Illustrator 22.1.0, SVG Export Plug-In . SVG Version: 6.00 Build 0)  -->
<svg version="1.1" id="Layer_1" xmlns="http://www.w3.org/2000/svg" xmlns:xlink="http://www.w3.org/1999/xlink" x="0px" y="0px"
	 viewBox="0 0 48.5 44.7" style="enable-background:new 0 0 48.5 44.7;" xml:space="preserve">
<style type="text/css">
	.st0{fill:none;stroke:#0394B5;stroke-width:5;stroke-miterlimit:10;}
</style>
<g>
	<polyline class="st0" points="3,40.2 24.3,9.5 37.4,15.2 46.2,1.4 	"/>
	<polyline class="st0" points="16.5,28.3 27.1,28.3 34,40.2 43.4,28.3 	"/>
	<line class="st0" x1="5" y1="28.3" x2="0" y2="28.3"/>
</g>
</svg>
