<?xml version="1.0" encoding="utf-8"?>
<!-- Generator: Adobe Illustrator 22.1.0, SVG Export Plug-In . SVG Version: 6.00 Build 0)  -->
<svg version="1.1" id="Layer_1" xmlns="http://www.w3.org/2000/svg" xmlns:xlink="http://www.w3.org/1999/xlink" x="0px" y="0px"
	 viewBox="0 0 22 22.7" style="enable-background:new 0 0 22 22.7;" xml:space="preserve">
<style type="text/css">
	.st0{fill:#0094B5;}
</style>
<g>
	<path class="st0" d="M17.2,0.5L16,1.8l4.3,4.1l1.3-1.3c0.6-0.7,0.6-1.7-0.1-2.3l-2-1.9C18.9-0.2,17.9-0.1,17.2,0.5z"/>
	<path class="st0" d="M6.8,11.4l0,4.3l4.3-0.2L19,7.3l-4.3-4.1L6.8,11.4z M12.3,12.7l-1.8,1.9l-1,0l0-1.7l-1.7,0l0,0l0-0.8l1.9-2
		L12.3,12.7z"/>
	<g>
		<path class="st0" d="M7.6,18.8L7.6,18.8C7.6,18.8,7.6,18.8,7.6,18.8c0,0.2-0.1,0.3-0.1,0.4c0,0,0,0.1,0,0.1c0,0.1-0.1,0.2-0.1,0.4
			c0,0,0,0,0,0.1c-0.1,0.1-0.1,0.2-0.2,0.3c0,0,0,0.1-0.1,0.1c-0.1,0.1-0.2,0.2-0.3,0.3c0,0,0,0,0,0c-0.2,0.2-0.3,0.3-0.5,0.4
			c-1.2,0.9-2.9,0.8-4.1-0.3c0,0,0,0,0,0c0,0,0,0,0,0C0.9,19.4,0.8,17.3,2,16c0,0,0,0,0,0s0,0,0,0c0,0,0,0,0,0
			c0.1-0.1,0.2-0.2,0.3-0.3c0,0,0,0,0.1,0c0.2-0.2,0.5-0.3,0.8-0.4c0,0,0,0,0,0c0.1-0.1,0.3-0.1,0.4-0.1c0,0,0,0,0,0l0,0
			c0.4-0.1,0.8-0.1,1.2,0l0-1.2l-0.6,0c-1.2,0-2.3,0.5-3.1,1.4c-1.7,1.8-1.6,4.5,0.1,6.2s4.5,1.6,6.2-0.1c0.8-0.8,1.2-1.9,1.2-3.1
			l0-0.6l-1.2,0C7.7,18.1,7.7,18.4,7.6,18.8z"/>
		<circle class="st0" cx="4.4" cy="18.3" r="1.7"/>
	</g>
</g>
</svg>
