<?xml version="1.0" encoding="utf-8"?>
<!-- Generator: Adobe Illustrator 24.0.0, SVG Export Plug-In . SVG Version: 6.00 Build 0)  -->
<svg version="1.1" id="Layer_1" xmlns="http://www.w3.org/2000/svg" xmlns:xlink="http://www.w3.org/1999/xlink" x="0px" y="0px"
	 viewBox="0 0 21 21" style="enable-background:new 0 0 21 21;" xml:space="preserve">
<g>
	<g>
		<path d="M15.51,11.15h-0.85v1.9h-1.07v-5.2h1.93c0.3,0,0.57,0.03,0.81,0.1c0.24,0.07,0.44,0.17,0.6,0.3
			c0.16,0.13,0.29,0.3,0.38,0.49c0.09,0.2,0.13,0.42,0.13,0.68c0,0.19-0.02,0.36-0.06,0.51c-0.04,0.15-0.1,0.29-0.19,0.4
			c-0.08,0.12-0.18,0.22-0.29,0.31c-0.11,0.09-0.24,0.16-0.39,0.23l1.13,2.13v0.05h-1.15L15.51,11.15z M14.65,10.28h0.87
			c0.14,0,0.26-0.02,0.37-0.06c0.11-0.04,0.19-0.09,0.26-0.16c0.07-0.07,0.12-0.15,0.16-0.24c0.04-0.09,0.05-0.2,0.05-0.32
			c0-0.25-0.07-0.44-0.21-0.58c-0.14-0.14-0.35-0.21-0.64-0.21h-0.86V10.28z"/>
	</g>
	<g>
		<path d="M18.49,5.35l-0.07-0.07h-1.49V3.44h-0.98v1.84H12.2V3.44h-1.95v1.84H9.41L4.23,7.3H0.01v6.44h4.22l5.09,1.92l4.54,0.01
			v1.9h0.98v-1.9l3.58,0.01l0.07-0.07C21.82,12.2,21.82,8.75,18.49,5.35z M18.21,15.18H9.45l-5.09-1.92L0.5,13.25V7.79h3.78
			l5.18-2.02h8.76C21.27,8.93,21.27,12.02,18.21,15.18z"/>
		<polygon points="8.22,8.12 8.22,9.99 5.5,9.99 5.5,10.96 8.22,10.96 8.22,12.83 10.26,11.65 12.3,10.47 10.26,9.3 		"/>
	</g>
</g>
</svg>
