<?xml version="1.0" encoding="utf-8"?>
<!-- Generator: Adobe Illustrator 24.0.0, SVG Export Plug-In . SVG Version: 6.00 Build 0)  -->
<svg version="1.1" id="Layer_1" xmlns="http://www.w3.org/2000/svg" xmlns:xlink="http://www.w3.org/1999/xlink" x="0px" y="0px"
	 viewBox="0 0 21 21" style="enable-background:new 0 0 21 21;" xml:space="preserve">
<style type="text/css">
	.st0{fill:#FFFFFF;}
</style>
<g>
	<path class="st0" d="M4.89,8.81c0.07-0.05,0.15-0.1,0.26-0.13c0.1-0.03,0.23-0.05,0.37-0.05c0.15,0,0.27,0.02,0.38,0.06
		C6,8.73,6.09,8.78,6.16,8.85s0.12,0.15,0.16,0.24c0.03,0.09,0.05,0.19,0.05,0.3h1.07c0-0.23-0.05-0.45-0.14-0.65
		c-0.09-0.2-0.22-0.37-0.39-0.51C6.76,8.09,6.56,7.98,6.32,7.9c-0.24-0.08-0.5-0.12-0.79-0.12c-0.28,0-0.54,0.04-0.77,0.11
		C4.52,7.96,4.32,8.05,4.15,8.18c-0.17,0.13-0.3,0.28-0.4,0.46c-0.09,0.18-0.14,0.38-0.14,0.6c0,0.23,0.05,0.43,0.14,0.6
		c0.09,0.17,0.22,0.32,0.38,0.45c0.16,0.13,0.34,0.24,0.55,0.34c0.21,0.1,0.44,0.18,0.67,0.26c0.21,0.07,0.38,0.13,0.51,0.19
		C6,11.12,6.1,11.18,6.18,11.25c0.08,0.06,0.13,0.13,0.15,0.2c0.03,0.07,0.04,0.15,0.04,0.25c0,0.08-0.02,0.16-0.05,0.23
		C6.29,12,6.24,12.06,6.17,12.12c-0.07,0.05-0.15,0.09-0.25,0.12c-0.1,0.03-0.22,0.04-0.36,0.04c-0.15,0-0.3-0.02-0.42-0.05
		c-0.13-0.03-0.23-0.08-0.32-0.15c-0.09-0.07-0.16-0.16-0.21-0.27c-0.05-0.11-0.07-0.24-0.07-0.4H3.45c0,0.2,0.03,0.37,0.08,0.53
		c0.06,0.16,0.13,0.31,0.23,0.43c0.1,0.13,0.22,0.24,0.35,0.33c0.13,0.09,0.28,0.17,0.43,0.23c0.16,0.06,0.32,0.11,0.49,0.14
		c0.17,0.03,0.34,0.04,0.52,0.04c0.29,0,0.55-0.03,0.78-0.1c0.23-0.07,0.43-0.16,0.6-0.28c0.16-0.12,0.29-0.27,0.38-0.45
		c0.09-0.18,0.13-0.38,0.13-0.61c0-0.22-0.04-0.41-0.11-0.58c-0.07-0.17-0.18-0.32-0.33-0.46c-0.14-0.14-0.32-0.26-0.54-0.36
		C6.25,10.18,6,10.08,5.72,9.99c-0.34-0.1-0.6-0.21-0.77-0.32C4.77,9.55,4.69,9.41,4.69,9.24C4.69,9.16,4.7,9.08,4.74,9
		C4.77,8.93,4.82,8.86,4.89,8.81z"/>
	<path class="st0" d="M16.78,7.3l-5.09-2.01l-0.93,0V3.43H8.8v1.85L5.05,5.28V3.43H4.07v1.84l-1.49,0L2.5,5.35
		c-3.34,3.4-3.34,6.85,0,10.25l0.07,0.07h3.58v1.89h0.98v-1.89h4.51l5.14-1.93H21V7.3H16.78z M20.51,13.25h-3.78l-5.18,1.93H2.78
		c-3.06-3.17-3.06-6.25,0-9.43h8.77l5.09,2.01l3.87,0.02V13.25z"/>
	<polygon class="st0" points="11.42,8.12 11.42,9.99 8.7,9.99 8.7,10.96 11.42,10.96 11.42,12.83 13.46,11.65 15.5,10.47 13.46,9.3 
			"/>
</g>
</svg>
