<?xml version="1.0" encoding="utf-8"?>
<!-- Generator: Adobe Illustrator 24.0.0, SVG Export Plug-In . SVG Version: 6.00 Build 0)  -->
<svg version="1.1" id="Layer_1" xmlns="http://www.w3.org/2000/svg" xmlns:xlink="http://www.w3.org/1999/xlink" x="0px" y="0px"
	 viewBox="0 0 21 21" style="enable-background:new 0 0 21 21;" xml:space="preserve">
<g>
	<rect x="4.47" y="10.15" width="7.68" height="0.7"/>
	<path d="M21,16.5h-9.58v-2H8.13v2H2.98l-0.1-0.11c-3.84-3.91-3.84-7.88,0-11.79l0.1-0.11h5.15v2h3.29v-2H21v4.34h-2.53v3.33H21
		V16.5z M12.13,15.8h8.17v-2.93h-2.53V8.13h2.53V5.2h-8.17v2h-4.7v-2H3.28c-3.43,3.56-3.43,7.03,0,10.6h4.15v-2h4.7V15.8z"/>
</g>
</svg>
