<?xml version="1.0" encoding="utf-8"?>
<!-- Generator: Adobe Illustrator 23.0.2, SVG Export Plug-In . SVG Version: 6.00 Build 0)  -->
<svg version="1.1" id="Add_Analysis_window" xmlns="http://www.w3.org/2000/svg" xmlns:xlink="http://www.w3.org/1999/xlink"
	 x="0px" y="0px" viewBox="0 0 21 21" style="enable-background:new 0 0 21 21;" xml:space="preserve">
<style type="text/css">
	.st0{fill:#FFFFFF;}
</style>
<g>
	<path class="st0" d="M10.5,10.1c-0.8,0-1.4,0.6-1.4,1.4c0,0.6,0.4,1.1,0.9,1.3v3h1v-3c0.5-0.2,0.9-0.7,0.9-1.3
		C11.9,10.7,11.3,10.1,10.5,10.1z"/>
	<path class="st0" d="M20.3,7.8v1.7h-2.6c-0.6-1.6-1.8-3-3.3-3.9V4.9c0-1-0.4-2-1.1-2.7C12.5,1.4,11.5,1,10.5,1
		C8.4,1,6.6,2.7,6.6,4.9v0.8C5.2,6.6,4,7.9,3.4,9.5H0.7V7.8H0v1.7v5.7V17h0.7v-1.8l2.7,0C4.6,18,7.3,20,10.5,20
		c3.2,0,5.9-1.9,7.1-4.7l2.7,0v1.8H21v-1.8V9.6V7.8H20.3z M7.3,4.9c0-1.7,1.4-3.2,3.2-3.2c0.8,0,1.6,0.3,2.2,0.9
		c0.6,0.6,0.9,1.4,0.9,2.2v0.5c-1-0.4-2-0.7-3.2-0.7c-1.1,0-2.2,0.3-3.2,0.7V4.9z M0.7,14.5v-4.3H3c-0.3,1.4-0.3,2.8,0,4.3H0.7z
		 M10.5,19.3c-3.8,0-7-3.1-7-7s3.1-7,7-7c3.6,0,6.5,2.7,6.9,6.2c0,0.5,0,1,0,1.6C17.1,16.6,14.1,19.3,10.5,19.3z M18,14.6
		c0.1-0.8,0.2-1.5,0.2-2.2c0,0,0,0,0,0c0-0.2,0-0.5,0-0.7c0-0.5-0.1-0.9-0.2-1.4h2.3v4.3H18z"/>
</g>
</svg>
