<?xml version="1.0" encoding="utf-8"?>
<!-- Generator: Adobe Illustrator 23.0.2, SVG Export Plug-In . SVG Version: 6.00 Build 0)  -->
<svg version="1.1" xmlns="http://www.w3.org/2000/svg" xmlns:xlink="http://www.w3.org/1999/xlink" x="0px" y="0px"
	 viewBox="0 0 21 21" style="enable-background:new 0 0 21 21;" xml:space="preserve">
<style type="text/css">
	.st0{fill:#FFFFFF;}
</style>
<g id="Layer_1">
</g>
<g id="Circled_Ics">
	<path class="st0" d="M14.4,8c-0.3-1.9-1.9-3.4-3.9-3.4c-2,0-3.6,1.5-3.9,3.4C2.5,9.2,0,12.2,0,16.4h2c0-3.5,2.1-5.5,4.8-6.3
		c0.6,1.4,2,2.4,3.6,2.4c1.6,0,3-1,3.6-2.4c2.7,0.8,4.8,2.8,4.8,6.3h2C21,12.2,18.5,9.2,14.4,8z"/>
</g>
</svg>
